(module MRQS_COP_L2 (layer F.Cu) (tedit 5FB8DE50)
  (fp_text reference G*** (at 5 0) (layer F.SilkS) hide
    (effects (font (size 1.524 1.524) (thickness 0.3)))
  )
  (fp_text value LOGO (at -5 0) (layer F.SilkS) hide
    (effects (font (size 1.524 1.524) (thickness 0.3)))
  )
  (fp_poly (pts (xy -0.4826 2.0066) (xy -1.9812 2.0066) (xy -1.9812 0.508) (xy -0.4826 0.508)
    (xy -0.4826 2.0066)) (layer F.Cu) (width 0.01))
  (fp_poly (pts (xy 2.0066 2.0066) (xy 0.0254 2.0066) (xy 0.0254 0.0254) (xy 2.0066 0.0254)
    (xy 2.0066 2.0066)) (layer F.Cu) (width 0.01))
  (fp_poly (pts (xy 0 0) (xy -1.9812 0) (xy -1.9812 -0.254) (xy -1.7018 -0.254)
    (xy -1.524888 -0.254) (xy -1.5113 -1.5113) (xy -1.087084 -0.25133) (xy -0.880256 -0.2667)
    (xy -0.461208 -1.5113) (xy -0.4572 -0.254) (xy -0.2794 -0.254) (xy -0.2794 -1.7272)
    (xy -0.554574 -1.7272) (xy -0.762742 -1.102675) (xy -0.819338 -0.936035) (xy -0.871715 -0.78778)
    (xy -0.917559 -0.663989) (xy -0.954557 -0.570736) (xy -0.980394 -0.514101) (xy -0.992371 -0.499611)
    (xy -1.006088 -0.528744) (xy -1.033308 -0.599304) (xy -1.071587 -0.704484) (xy -1.118483 -0.837481)
    (xy -1.171551 -0.991487) (xy -1.214304 -1.117786) (xy -1.414777 -1.7145) (xy -1.558289 -1.722118)
    (xy -1.7018 -1.729736) (xy -1.7018 -0.254) (xy -1.9812 -0.254) (xy -1.9812 -1.9812)
    (xy 0 -1.9812) (xy 0 0)) (layer B.Cu) (width 0.01))
  (fp_poly (pts (xy 2.0066 -0.4826) (xy 0.508 -0.4826) (xy 0.508 -1.9812) (xy 2.0066 -1.9812)
    (xy 2.0066 -0.4826)) (layer B.Cu) (width 0.01))
)
