(module MRQS_ARIS_SILKS_LOGO (layer F.Cu) (tedit 5FB8DCDB)
  (fp_text reference G*** (at 4.75 0) (layer F.SilkS) hide
    (effects (font (size 1.524 1.524) (thickness 0.3)))
  )
  (fp_text value LOGO (at 0 -2.75) (layer F.SilkS) hide
    (effects (font (size 1.524 1.524) (thickness 0.3)))
  )
  (fp_poly (pts (xy 0.802775 -0.39774) (xy 1.104366 -0.379812) (xy 1.322327 -0.350622) (xy 1.474477 -0.307414)
    (xy 1.518338 -0.286962) (xy 1.685392 -0.145479) (xy 1.788206 0.04973) (xy 1.82346 0.270827)
    (xy 1.787835 0.489975) (xy 1.678012 0.679336) (xy 1.638292 0.719012) (xy 1.524507 0.811419)
    (xy 1.433249 0.870059) (xy 1.420305 0.875463) (xy 1.414662 0.923155) (xy 1.478125 1.040496)
    (xy 1.611483 1.228812) (xy 1.696736 1.339918) (xy 2.041598 1.781563) (xy 1.330679 1.781563)
    (xy 1.085279 1.387336) (xy 0.83988 0.993108) (xy 0.825013 1.387336) (xy 0.810146 1.781563)
    (xy -0.341586 1.781563) (xy -0.38889 1.616132) (xy -0.436195 1.450701) (xy -0.843464 1.436093)
    (xy -1.250733 1.421486) (xy -1.315836 1.601524) (xy -1.356554 1.701751) (xy -1.40557 1.755517)
    (xy -1.492337 1.777291) (xy -1.646305 1.781542) (xy -1.682312 1.781563) (xy -1.983685 1.781563)
    (xy -1.889357 1.539779) (xy -1.840002 1.412036) (xy -1.76266 1.210372) (xy -1.665459 0.956048)
    (xy -1.645428 0.903507) (xy -1.056347 0.903507) (xy -1.03708 0.945537) (xy -0.932486 0.964951)
    (xy -0.848067 0.967134) (xy -0.616305 0.967134) (xy -0.707563 0.6999) (xy -0.763103 0.536639)
    (xy -0.807283 0.405674) (xy -0.823675 0.356312) (xy -0.850574 0.357716) (xy -0.895537 0.439514)
    (xy -0.940697 0.55992) (xy -0.995078 0.723833) (xy -1.038529 0.852546) (xy -1.056347 0.903507)
    (xy -1.645428 0.903507) (xy -1.556529 0.670328) (xy -1.47016 0.443319) (xy -1.145291 -0.411357)
    (xy -0.83988 -0.39656) (xy -0.534469 -0.381764) (xy -0.152706 0.636272) (xy 0.229058 1.654308)
    (xy 0.242855 0.617953) (xy 0.247015 0.305411) (xy 0.814429 0.305411) (xy 0.81805 0.456161)
    (xy 0.838699 0.531345) (xy 0.891054 0.557172) (xy 0.956954 0.55992) (xy 1.084138 0.539293)
    (xy 1.160561 0.498837) (xy 1.207597 0.403655) (xy 1.221643 0.305411) (xy 1.185683 0.15112)
    (xy 1.076904 0.067753) (xy 0.956954 0.050902) (xy 0.872534 0.057368) (xy 0.830431 0.094242)
    (xy 0.815968 0.187732) (xy 0.814429 0.305411) (xy 0.247015 0.305411) (xy 0.256652 -0.418403)
    (xy 0.802775 -0.39774)) (layer F.SilkS) (width 0.01))
  (fp_poly (pts (xy 0.804992 -1.695984) (xy 0.97003 -1.591895) (xy 1.086019 -1.428296) (xy 1.139819 -1.219135)
    (xy 1.118287 -0.978356) (xy 1.097527 -0.908789) (xy 1.055369 -0.760453) (xy 1.05869 -0.679494)
    (xy 1.082336 -0.653443) (xy 1.114348 -0.598406) (xy 1.103325 -0.57734) (xy 1.034332 -0.568533)
    (xy 0.977545 -0.592463) (xy 0.857318 -0.620115) (xy 0.788978 -0.60684) (xy 0.602817 -0.568966)
    (xy 0.42697 -0.609807) (xy 0.263837 -0.723924) (xy 0.15722 -0.894855) (xy 0.108245 -1.097006)
    (xy 0.112044 -1.177606) (xy 0.254509 -1.177606) (xy 0.290897 -0.969882) (xy 0.389792 -0.812277)
    (xy 0.535789 -0.72435) (xy 0.620749 -0.712625) (xy 0.72232 -0.721016) (xy 0.738199 -0.753231)
    (xy 0.719299 -0.780936) (xy 0.685866 -0.858606) (xy 0.729282 -0.889968) (xy 0.817264 -0.863813)
    (xy 0.883358 -0.846786) (xy 0.930356 -0.89684) (xy 0.966961 -0.99206) (xy 0.998177 -1.205135)
    (xy 0.951878 -1.385961) (xy 0.838888 -1.515805) (xy 0.670031 -1.575938) (xy 0.628383 -1.577956)
    (xy 0.439612 -1.536184) (xy 0.312871 -1.416892) (xy 0.256597 -1.229115) (xy 0.254509 -1.177606)
    (xy 0.112044 -1.177606) (xy 0.118039 -1.304786) (xy 0.187727 -1.4926) (xy 0.318435 -1.634857)
    (xy 0.380341 -1.66985) (xy 0.604048 -1.726618) (xy 0.804992 -1.695984)) (layer F.SilkS) (width 0.01))
  (fp_poly (pts (xy 1.816675 -1.680902) (xy 1.935047 -1.597978) (xy 1.984971 -1.48164) (xy 1.98517 -1.473266)
    (xy 1.961489 -1.388341) (xy 1.904147 -1.388815) (xy 1.833701 -1.47392) (xy 1.830927 -1.479027)
    (xy 1.765827 -1.550796) (xy 1.655355 -1.571448) (xy 1.587352 -1.568105) (xy 1.461874 -1.547748)
    (xy 1.409115 -1.500737) (xy 1.399799 -1.427578) (xy 1.413772 -1.350342) (xy 1.47134 -1.295795)
    (xy 1.595978 -1.246194) (xy 1.669163 -1.22397) (xy 1.86832 -1.150401) (xy 1.983119 -1.063353)
    (xy 2.030973 -0.946749) (xy 2.035293 -0.885945) (xy 1.990192 -0.75576) (xy 1.868974 -0.654632)
    (xy 1.695848 -0.594348) (xy 1.495025 -0.586696) (xy 1.438424 -0.595334) (xy 1.337095 -0.643067)
    (xy 1.249677 -0.728754) (xy 1.189863 -0.827368) (xy 1.171345 -0.913877) (xy 1.207816 -0.963253)
    (xy 1.235024 -0.967134) (xy 1.30266 -0.925627) (xy 1.349553 -0.852605) (xy 1.435873 -0.756693)
    (xy 1.563955 -0.716132) (xy 1.701918 -0.726867) (xy 1.817885 -0.784843) (xy 1.879975 -0.886008)
    (xy 1.883367 -0.920493) (xy 1.851661 -0.989399) (xy 1.745776 -1.049777) (xy 1.622311 -1.091618)
    (xy 1.460586 -1.146358) (xy 1.333892 -1.201141) (xy 1.291449 -1.227077) (xy 1.22883 -1.337176)
    (xy 1.229627 -1.479025) (xy 1.289338 -1.608534) (xy 1.334773 -1.651422) (xy 1.488147 -1.715401)
    (xy 1.658245 -1.722635) (xy 1.816675 -1.680902)) (layer F.SilkS) (width 0.01))
  (fp_poly (pts (xy -1.021727 -1.672338) (xy -0.99315 -1.638113) (xy -0.976738 -1.559145) (xy -0.96918 -1.417493)
    (xy -0.967164 -1.195218) (xy -0.967134 -1.145291) (xy -0.971757 -0.900647) (xy -0.98475 -0.722673)
    (xy -1.004799 -0.625163) (xy -1.018036 -0.610822) (xy -1.04277 -0.658642) (xy -1.061443 -0.78992)
    (xy -1.0718 -0.986382) (xy -1.072957 -1.056213) (xy -1.076975 -1.501603) (xy -1.230817 -1.053473)
    (xy -1.320695 -0.812561) (xy -1.395876 -0.670823) (xy -1.463921 -0.628092) (xy -1.532394 -0.684202)
    (xy -1.608855 -0.838986) (xy -1.684219 -1.043487) (xy -1.824487 -1.450702) (xy -1.828476 -1.030762)
    (xy -1.834021 -0.817676) (xy -1.847963 -0.688527) (xy -1.873695 -0.625566) (xy -1.908818 -0.610822)
    (xy -1.943586 -0.62715) (xy -1.966243 -0.687064) (xy -1.979115 -0.806955) (xy -1.984529 -1.003214)
    (xy -1.98517 -1.148831) (xy -1.984248 -1.387461) (xy -1.979013 -1.541777) (xy -1.965761 -1.629263)
    (xy -1.940791 -1.667409) (xy -1.900398 -1.673699) (xy -1.874689 -1.670575) (xy -1.810378 -1.641984)
    (xy -1.751938 -1.564781) (xy -1.688406 -1.420502) (xy -1.632905 -1.263383) (xy -1.568484 -1.078114)
    (xy -1.513841 -0.932779) (xy -1.478504 -0.852375) (xy -1.473425 -0.844958) (xy -1.446543 -0.877249)
    (xy -1.398182 -0.986803) (xy -1.336722 -1.153556) (xy -1.304837 -1.248609) (xy -1.230513 -1.463189)
    (xy -1.171559 -1.595529) (xy -1.118795 -1.662189) (xy -1.065781 -1.67976) (xy -1.021727 -1.672338)) (layer F.SilkS) (width 0.01))
  (fp_poly (pts (xy -0.237179 -1.670475) (xy -0.094982 -1.640412) (xy -0.029087 -1.599771) (xy 0.038407 -1.476338)
    (xy 0.041571 -1.335988) (xy -0.020601 -1.225671) (xy -0.021081 -1.225271) (xy -0.065451 -1.168748)
    (xy -0.052458 -1.09259) (xy -0.021394 -1.028156) (xy 0.033931 -0.879193) (xy 0.049494 -0.740572)
    (xy 0.025581 -0.641684) (xy -0.025451 -0.610822) (xy -0.083487 -0.651969) (xy -0.101804 -0.778798)
    (xy -0.124851 -0.937623) (xy -0.204788 -1.028777) (xy -0.357807 -1.066038) (xy -0.442846 -1.068938)
    (xy -0.661724 -1.068938) (xy -0.661724 -0.83988) (xy -0.671716 -0.688905) (xy -0.705692 -0.620136)
    (xy -0.738076 -0.610822) (xy -0.772943 -0.627207) (xy -0.795625 -0.68732) (xy -0.80847 -0.807594)
    (xy -0.813825 -1.004464) (xy -0.814429 -1.145291) (xy -0.814429 -1.221643) (xy -0.661724 -1.221643)
    (xy -0.405617 -1.221643) (xy -0.235719 -1.231933) (xy -0.144479 -1.266935) (xy -0.117556 -1.304915)
    (xy -0.112469 -1.427101) (xy -0.198777 -1.514834) (xy -0.370349 -1.562872) (xy -0.425154 -1.56802)
    (xy -0.661724 -1.583534) (xy -0.661724 -1.221643) (xy -0.814429 -1.221643) (xy -0.814429 -1.67976)
    (xy -0.461752 -1.67976) (xy -0.237179 -1.670475)) (layer F.SilkS) (width 0.01))
)
