(module SCRW_CON_2X1 (layer F.Cu) (tedit 5EC0DFE0)
  (fp_text reference J2 (at 0 2.54) (layer F.SilkS)
    (effects (font (size 1 1) (thickness 0.15)))
  )
  (fp_text value Conn_01x02 (at 0 -3.81) (layer F.Fab)
    (effects (font (size 1 1) (thickness 0.15)))
  )
  (pad 2 thru_hole circle (at 2.54 0) (size 3 3) (drill 1.2) (layers *.Cu *.Mask))
  (pad 1 thru_hole circle (at -2.54 0) (size 3 3) (drill 1.2) (layers *.Cu *.Mask))
)
