(footprint "SCVCOAC" (version 20211014) (generator pcbnew)
  (layer "F.Cu")
  (tedit 0)
  (fp_text reference "REF**" (at 1.27 -1.27 unlocked) (layer "F.SilkS")
    (effects (font (size 1 1) (thickness 0.15)))
    (tstamp 37772280-05fe-4b34-a312-0229b7e4f7db)
  )
  (fp_text value "SCVCOAC" (at 0 2.54 unlocked) (layer "F.Fab")
    (effects (font (size 1 1) (thickness 0.15)))
    (tstamp acb9ed85-6e81-4ec8-b0cf-5ad486366362)
  )
  (fp_text user "${REFERENCE}" (at 0 3.81 unlocked) (layer "F.Fab")
    (effects (font (size 1 1) (thickness 0.15)))
    (tstamp ae84c8b6-3f76-4d99-b422-465522037493)
  )
  (fp_poly (pts
      (xy 0.597002 0.903777)
      (xy 0.901802 1.157777)
      (xy 1.638402 0.344977)
      (xy 0.774802 0.014777)
    ) (layer "F.Cu") (width 0) (fill solid) (tstamp 37eaf18f-9b9f-44fa-a93f-951a713f8bd7))
  (fp_poly (pts
      (xy -0.6096 0.889)
      (xy -0.9144 1.143)
      (xy -1.651 0.3302)
      (xy -0.7874 0)
    ) (layer "F.Cu") (width 0) (fill solid) (tstamp 4ed5799d-4cd0-433e-bc83-5e4fe111c269))
  (fp_poly (pts
      (xy 0.594946 0.911469)
      (xy 0.899746 1.165469)
      (xy 1.636346 0.352669)
      (xy 0.772746 0.022469)
    ) (layer "B.Cu") (width 0) (fill solid) (tstamp 311889c2-1924-4343-a6c8-af01f55c7f42))
  (fp_poly (pts
      (xy -0.6096 0.889)
      (xy -0.9144 1.143)
      (xy -1.651 0.3302)
      (xy -0.7874 0)
    ) (layer "B.Cu") (width 0) (fill solid) (tstamp 76376365-fb8a-478d-b2ac-811699f7a17f))
  (fp_line (start 3.81 0.635) (end 3.175 0) (layer "F.SilkS") (width 0.12) (tstamp 38cc40e6-e4bb-4bce-a47d-2e89bed258a2))
  (fp_line (start -3.175 0) (end -3.81 0.635) (layer "F.SilkS") (width 0.12) (tstamp 6039c21b-c375-4ceb-abe9-374fd5a9890a))
  (pad "1" thru_hole circle (at 0.762 1.016) (size 0.4 0.4) (drill 0.2) (property pad_prop_castellated) (layers *.Cu *.Mask) (tstamp 07cbf564-67f1-4b1c-bb86-7064a460d50f))
  (pad "1" thru_hole circle (at -1.27 0) (size 1 1) (drill 0.65) (property pad_prop_castellated) (layers *.Cu *.Mask) (tstamp 40852525-5d51-4c9f-95e1-0032ee423f08))
  (pad "1" thru_hole circle (at -0.762 1.016) (size 0.4 0.4) (drill 0.2) (property pad_prop_castellated) (layers *.Cu *.Mask) (tstamp 5404b892-f8f4-413f-b975-1d92772d57b4))
  (pad "1" thru_hole circle (at 1.27 0) (size 1 1) (drill 0.65) (property pad_prop_castellated) (layers *.Cu *.Mask) (tstamp c5e1c43b-2c44-4966-a047-fee3fff57e8f))
  (pad "2" smd circle (at 0 0.5) (size 0.4 0.4) (layers "B.Cu" "B.Paste" "B.Mask") (tstamp 32d7758c-330a-476c-983a-d51f723d9331))
  (pad "2" smd circle (at 0 0.5) (size 0.4 0.4) (layers "F.Cu" "F.Paste" "F.Mask") (tstamp 7ff1223a-ecd7-4a20-9fb3-f0cab9292e29))
  (pad "2" thru_hole circle (at 0 0) (size 1 1) (drill 0.65) (property pad_prop_castellated) (layers *.Cu *.Mask) (tstamp c4213a31-4fef-42a4-aee6-9ccf20a400fb))
  (pad "3" smd circle (at 2.54 0.5) (size 0.4 0.4) (layers "B.Cu" "B.Paste" "B.Mask") (tstamp 3eb8d971-be3d-4bb6-80f7-21083f3cbec8))
  (pad "3" smd circle (at 2.54 0.5) (size 0.4 0.4) (layers "F.Cu" "F.Paste" "F.Mask") (tstamp acbe7764-66c6-42e0-8e0e-d71d1540f2f2))
  (pad "3" thru_hole circle (at 2.54 0) (size 1 1) (drill 0.65) (property pad_prop_castellated) (layers *.Cu *.Mask) (tstamp b07b6ea0-f45c-43fb-b271-deb19d0ca397))
  (pad "4" smd circle (at -2.54 0.508) (size 0.4 0.4) (layers "F.Cu" "F.Paste" "F.Mask") (tstamp 09228941-4339-491f-877a-979dc0d3e82c))
  (pad "4" smd circle (at -2.54 0.508) (size 0.4 0.4) (layers "B.Cu" "B.Paste" "B.Mask") (tstamp 7b27d83a-a39a-437c-97c5-e8f304874981))
  (pad "4" thru_hole circle (at -2.54 0.008) (size 1 1) (drill 0.65) (property pad_prop_castellated) (layers *.Cu *.Mask) (tstamp a123761f-a8ff-48c0-8244-af2cdca66ee7))
)
