G04 #@! TF.GenerationSoftware,KiCad,Pcbnew,6.0.6-3a73a75311~116~ubuntu20.04.1*
G04 #@! TF.CreationDate,2022-07-06T11:51:00+02:00*
G04 #@! TF.ProjectId,STSS-15X15,53545353-2d31-4355-9831-352e6b696361,rev?*
G04 #@! TF.SameCoordinates,Original*
G04 #@! TF.FileFunction,Copper,L2,Bot*
G04 #@! TF.FilePolarity,Positive*
%FSLAX46Y46*%
G04 Gerber Fmt 4.6, Leading zero omitted, Abs format (unit mm)*
G04 Created by KiCad (PCBNEW 6.0.6-3a73a75311~116~ubuntu20.04.1) date 2022-07-06 11:51:00*
%MOMM*%
%LPD*%
G01*
G04 APERTURE LIST*
G04 #@! TA.AperFunction,ComponentPad*
%ADD10R,1.000000X1.000000*%
G04 #@! TD*
G04 #@! TA.AperFunction,ComponentPad*
%ADD11O,1.000000X1.000000*%
G04 #@! TD*
G04 #@! TA.AperFunction,ViaPad*
%ADD12C,0.800000*%
G04 #@! TD*
G04 #@! TA.AperFunction,ViaPad*
%ADD13C,0.500000*%
G04 #@! TD*
G04 #@! TA.AperFunction,ViaPad*
%ADD14C,1.000000*%
G04 #@! TD*
G04 #@! TA.AperFunction,Conductor*
%ADD15C,0.500000*%
G04 #@! TD*
G04 #@! TA.AperFunction,Conductor*
%ADD16C,1.000000*%
G04 #@! TD*
G04 APERTURE END LIST*
D10*
X139650000Y-44100000D03*
D11*
X140920000Y-44100000D03*
D12*
X120375500Y-35500000D03*
X120400000Y-41900000D03*
D13*
X141000000Y-30649500D03*
D12*
X141800000Y-33600000D03*
D13*
X138600000Y-30649500D03*
D12*
X135200000Y-32900000D03*
X114100000Y-29900000D03*
D13*
X123500000Y-37500000D03*
X131500000Y-38500000D03*
X132500000Y-34500000D03*
X127500000Y-39500000D03*
X136500000Y-37500000D03*
X125500000Y-40500000D03*
X127500000Y-35500000D03*
D14*
X113000000Y-40000000D03*
D13*
X123500000Y-39500000D03*
X125500000Y-37500000D03*
X132500000Y-33500000D03*
X128500000Y-38500000D03*
X126500000Y-40500000D03*
X134500000Y-36500000D03*
X130500000Y-38500000D03*
X128500000Y-34500000D03*
X139500000Y-36500000D03*
X133500000Y-34500000D03*
X124500000Y-40500000D03*
X123500000Y-35500000D03*
X128500000Y-36500000D03*
X131500000Y-40500000D03*
X125500000Y-39500000D03*
X137500000Y-36500000D03*
X125500000Y-34500000D03*
X130500000Y-35500000D03*
D14*
X118500000Y-37500000D03*
D13*
X133500000Y-38500000D03*
X128500000Y-32500000D03*
X125500000Y-33500000D03*
D14*
X130500000Y-42500000D03*
D13*
X132500000Y-38500000D03*
X129500000Y-40500000D03*
X124500000Y-35500000D03*
X134500000Y-34500000D03*
X128500000Y-35500000D03*
X134500000Y-35500000D03*
X123500000Y-38500000D03*
X118700000Y-43200000D03*
D14*
X132500000Y-41500000D03*
D13*
X128500000Y-37500000D03*
X126500000Y-35500000D03*
D14*
X127500000Y-42500000D03*
D13*
X130500000Y-40500000D03*
X134500000Y-37500000D03*
D14*
X113000000Y-44000000D03*
D13*
X129500000Y-32500000D03*
D12*
X115500000Y-39200000D03*
D13*
X129500000Y-33500000D03*
X138500000Y-35500000D03*
X127500000Y-37500000D03*
X130500000Y-33500000D03*
X123500000Y-34500000D03*
X133500000Y-37500000D03*
X127500000Y-38500000D03*
X124500000Y-39500000D03*
D12*
X115500000Y-42000000D03*
D13*
X140900500Y-39100000D03*
X124500000Y-34500000D03*
X137500000Y-35500000D03*
X133500000Y-36500000D03*
X131500000Y-36500000D03*
X131500000Y-35500000D03*
X129500000Y-38500000D03*
X123500000Y-36500000D03*
X132500000Y-39500000D03*
X129500000Y-36500000D03*
X132500000Y-35500000D03*
X126500000Y-36500000D03*
X136500000Y-36500000D03*
D14*
X120500000Y-44000000D03*
D13*
X132500000Y-36500000D03*
X129500000Y-35500000D03*
X127500000Y-40500000D03*
D14*
X122500000Y-32500000D03*
X124500000Y-42500000D03*
D13*
X129500000Y-37500000D03*
X128500000Y-33500000D03*
X130500000Y-39500000D03*
X139500000Y-35500000D03*
D14*
X113000000Y-42000000D03*
D13*
X131500000Y-33500000D03*
X130500000Y-32500000D03*
X124500000Y-33500000D03*
X135500000Y-37500000D03*
X126500000Y-37500000D03*
X127500000Y-36500000D03*
X125500000Y-35500000D03*
X127500000Y-34500000D03*
X130500000Y-36500000D03*
X134500000Y-38500000D03*
X131500000Y-32500000D03*
X138500000Y-36500000D03*
X127500000Y-33500000D03*
X135500000Y-35500000D03*
X126500000Y-32500000D03*
X130500000Y-37500000D03*
X125500000Y-36500000D03*
X124500000Y-36500000D03*
X124500000Y-37500000D03*
D14*
X122500000Y-41500000D03*
D13*
X129500000Y-39500000D03*
X131500000Y-39500000D03*
X129500000Y-34500000D03*
X126500000Y-39500000D03*
X125500000Y-32500000D03*
X128500000Y-39500000D03*
X136500000Y-35500000D03*
X131500000Y-34500000D03*
X124500000Y-32500000D03*
X123500000Y-33500000D03*
X124500000Y-38500000D03*
X131500000Y-37500000D03*
X126500000Y-34500000D03*
X126500000Y-38500000D03*
X132500000Y-37500000D03*
X135500000Y-36500000D03*
X127500000Y-32500000D03*
X130500000Y-34500000D03*
X125500000Y-38500000D03*
X133500000Y-35500000D03*
X126500000Y-33500000D03*
X128500000Y-40500000D03*
D12*
X136100000Y-44100000D03*
X114400000Y-33900000D03*
D15*
X120600000Y-31100000D02*
X121050000Y-30650000D01*
X120400000Y-41900000D02*
X120375500Y-41875500D01*
X137450500Y-30649500D02*
X135200000Y-32900000D01*
X141800000Y-31300000D02*
X141800000Y-33600000D01*
X120375500Y-35500000D02*
X120600000Y-35275500D01*
X141100000Y-32900000D02*
X141800000Y-33600000D01*
X120375500Y-41875500D02*
X120375500Y-35500000D01*
X138600000Y-30649500D02*
X137450500Y-30649500D01*
X132950000Y-30650000D02*
X135200000Y-32900000D01*
X135200000Y-32900000D02*
X141100000Y-32900000D01*
X141000000Y-30649500D02*
X141149500Y-30649500D01*
X141000000Y-30649500D02*
X138600000Y-30649500D01*
X121050000Y-30650000D02*
X132950000Y-30650000D01*
X141149500Y-30649500D02*
X141800000Y-31300000D01*
X120600000Y-35275500D02*
X120600000Y-31100000D01*
D16*
X144500000Y-40520000D02*
X140920000Y-44100000D01*
X142292894Y-28500000D02*
X144500000Y-30707106D01*
X115500000Y-28500000D02*
X142292894Y-28500000D01*
X114100000Y-29900000D02*
X115500000Y-28500000D01*
X144500000Y-30707106D02*
X144500000Y-40520000D01*
X115500000Y-42000000D02*
X115500000Y-39200000D01*
X138400000Y-42400000D02*
X136700000Y-44100000D01*
X136700000Y-44100000D02*
X136100000Y-44100000D01*
X143300000Y-40022944D02*
X140922944Y-42400000D01*
X114400000Y-33900000D02*
X114400000Y-31500000D01*
X141795838Y-29700000D02*
X143300000Y-31204162D01*
X143300000Y-31204162D02*
X143300000Y-40022944D01*
X114400000Y-31500000D02*
X116200000Y-29700000D01*
X116200000Y-29700000D02*
X141795838Y-29700000D01*
X140922944Y-42400000D02*
X138400000Y-42400000D01*
G04 #@! TA.AperFunction,Conductor*
G36*
X113829197Y-28528502D02*
G01*
X113875690Y-28582158D01*
X113885794Y-28652432D01*
X113856300Y-28717012D01*
X113850171Y-28723595D01*
X113351691Y-29222075D01*
X113257897Y-29336261D01*
X113164438Y-29510563D01*
X113106613Y-29699698D01*
X113086626Y-29896462D01*
X113105239Y-30093362D01*
X113161741Y-30282896D01*
X113253982Y-30457846D01*
X113257858Y-30462632D01*
X113257859Y-30462634D01*
X113374568Y-30606757D01*
X113378447Y-30611547D01*
X113383182Y-30615492D01*
X113525659Y-30734200D01*
X113525664Y-30734203D01*
X113530396Y-30738146D01*
X113535812Y-30741099D01*
X113537949Y-30742551D01*
X113583049Y-30797383D01*
X113591346Y-30867893D01*
X113571092Y-30917955D01*
X113567803Y-30922758D01*
X113563846Y-30927474D01*
X113561278Y-30932144D01*
X113557897Y-30936261D01*
X113526860Y-30994145D01*
X113514023Y-31018086D01*
X113513394Y-31019245D01*
X113471538Y-31095381D01*
X113471535Y-31095389D01*
X113468567Y-31100787D01*
X113466955Y-31105869D01*
X113464438Y-31110563D01*
X113437238Y-31199531D01*
X113436918Y-31200559D01*
X113408765Y-31289306D01*
X113408171Y-31294602D01*
X113406613Y-31299698D01*
X113405990Y-31305834D01*
X113397218Y-31392187D01*
X113397089Y-31393393D01*
X113391500Y-31443227D01*
X113391500Y-31446754D01*
X113391445Y-31447739D01*
X113390998Y-31453419D01*
X113386626Y-31496462D01*
X113387206Y-31502593D01*
X113390941Y-31542109D01*
X113391500Y-31553967D01*
X113391500Y-33949769D01*
X113391800Y-33952825D01*
X113391800Y-33952832D01*
X113392530Y-33960273D01*
X113405920Y-34096833D01*
X113463084Y-34286169D01*
X113555934Y-34460796D01*
X113593722Y-34507128D01*
X113677040Y-34609287D01*
X113677043Y-34609290D01*
X113680935Y-34614062D01*
X113685682Y-34617989D01*
X113685684Y-34617991D01*
X113828575Y-34736201D01*
X113828579Y-34736203D01*
X113833325Y-34740130D01*
X114007299Y-34834198D01*
X114196232Y-34892682D01*
X114202357Y-34893326D01*
X114202358Y-34893326D01*
X114386796Y-34912711D01*
X114386798Y-34912711D01*
X114392925Y-34913355D01*
X114475424Y-34905847D01*
X114583749Y-34895989D01*
X114583752Y-34895988D01*
X114589888Y-34895430D01*
X114595794Y-34893692D01*
X114595798Y-34893691D01*
X114700924Y-34862751D01*
X114779619Y-34839590D01*
X114785077Y-34836737D01*
X114785081Y-34836735D01*
X114922284Y-34765006D01*
X114954890Y-34747960D01*
X115109025Y-34624032D01*
X115236154Y-34472526D01*
X115239121Y-34467128D01*
X115239125Y-34467123D01*
X115328467Y-34304608D01*
X115331433Y-34299213D01*
X115333846Y-34291608D01*
X115389373Y-34116564D01*
X115389373Y-34116563D01*
X115391235Y-34110694D01*
X115408500Y-33956773D01*
X115408500Y-31969925D01*
X115428502Y-31901804D01*
X115445405Y-31880830D01*
X116580829Y-30745405D01*
X116643141Y-30711380D01*
X116669924Y-30708500D01*
X119751767Y-30708500D01*
X119819888Y-30728502D01*
X119866381Y-30782158D01*
X119876485Y-30852432D01*
X119875127Y-30860159D01*
X119860514Y-30930412D01*
X119859544Y-30934696D01*
X119842192Y-31005610D01*
X119841500Y-31016764D01*
X119841464Y-31016762D01*
X119841225Y-31020755D01*
X119840851Y-31024947D01*
X119839360Y-31032115D01*
X119839558Y-31039432D01*
X119841454Y-31109521D01*
X119841500Y-31112928D01*
X119841500Y-34700806D01*
X119821498Y-34768927D01*
X119789564Y-34802740D01*
X119764247Y-34821134D01*
X119759826Y-34826044D01*
X119759825Y-34826045D01*
X119750844Y-34836020D01*
X119636460Y-34963056D01*
X119540973Y-35128444D01*
X119481958Y-35310072D01*
X119481268Y-35316633D01*
X119481268Y-35316635D01*
X119468218Y-35440799D01*
X119461996Y-35500000D01*
X119462686Y-35506565D01*
X119476898Y-35641781D01*
X119481958Y-35689928D01*
X119540973Y-35871556D01*
X119544276Y-35877278D01*
X119544277Y-35877279D01*
X119600119Y-35973999D01*
X119617000Y-36036999D01*
X119617000Y-41405436D01*
X119600119Y-41468435D01*
X119565473Y-41528444D01*
X119506458Y-41710072D01*
X119505768Y-41716633D01*
X119505768Y-41716635D01*
X119487186Y-41893435D01*
X119486496Y-41900000D01*
X119506458Y-42089928D01*
X119565473Y-42271556D01*
X119660960Y-42436944D01*
X119788747Y-42578866D01*
X119943248Y-42691118D01*
X119949276Y-42693802D01*
X119949278Y-42693803D01*
X120111681Y-42766109D01*
X120117712Y-42768794D01*
X120211113Y-42788647D01*
X120298056Y-42807128D01*
X120298061Y-42807128D01*
X120304513Y-42808500D01*
X120495487Y-42808500D01*
X120501939Y-42807128D01*
X120501944Y-42807128D01*
X120588887Y-42788647D01*
X120682288Y-42768794D01*
X120688319Y-42766109D01*
X120850722Y-42693803D01*
X120850724Y-42693802D01*
X120856752Y-42691118D01*
X121011253Y-42578866D01*
X121139040Y-42436944D01*
X121234527Y-42271556D01*
X121293542Y-42089928D01*
X121313504Y-41900000D01*
X121312814Y-41893435D01*
X121294232Y-41716635D01*
X121294232Y-41716633D01*
X121293542Y-41710072D01*
X121234527Y-41528444D01*
X121163455Y-41405343D01*
X121150881Y-41383565D01*
X121134000Y-41320565D01*
X121134000Y-36036999D01*
X121150881Y-35973999D01*
X121206723Y-35877279D01*
X121206724Y-35877278D01*
X121210027Y-35871556D01*
X121269042Y-35689928D01*
X121274102Y-35641779D01*
X121287196Y-35597648D01*
X121312439Y-35548213D01*
X121315769Y-35541692D01*
X121317508Y-35534584D01*
X121319607Y-35528941D01*
X121321524Y-35523178D01*
X121324622Y-35516550D01*
X121339487Y-35445083D01*
X121340457Y-35440799D01*
X121356473Y-35375345D01*
X121357808Y-35369890D01*
X121358500Y-35358736D01*
X121358536Y-35358738D01*
X121358775Y-35354745D01*
X121359149Y-35350553D01*
X121360640Y-35343385D01*
X121358546Y-35265979D01*
X121358500Y-35262572D01*
X121358500Y-31534500D01*
X121378502Y-31466379D01*
X121432158Y-31419886D01*
X121484500Y-31408500D01*
X132583629Y-31408500D01*
X132651750Y-31428502D01*
X132672724Y-31445405D01*
X134279875Y-33052556D01*
X134310613Y-33102714D01*
X134365473Y-33271556D01*
X134460960Y-33436944D01*
X134588747Y-33578866D01*
X134687843Y-33650864D01*
X134737904Y-33687235D01*
X134743248Y-33691118D01*
X134749276Y-33693802D01*
X134749278Y-33693803D01*
X134911681Y-33766109D01*
X134917712Y-33768794D01*
X135011112Y-33788647D01*
X135098056Y-33807128D01*
X135098061Y-33807128D01*
X135104513Y-33808500D01*
X135295487Y-33808500D01*
X135301939Y-33807128D01*
X135301944Y-33807128D01*
X135388888Y-33788647D01*
X135482288Y-33768794D01*
X135488319Y-33766109D01*
X135650722Y-33693803D01*
X135650724Y-33693802D01*
X135656752Y-33691118D01*
X135662091Y-33687239D01*
X135662098Y-33687235D01*
X135668528Y-33682563D01*
X135742587Y-33658500D01*
X140733629Y-33658500D01*
X140801750Y-33678502D01*
X140822724Y-33695405D01*
X140879875Y-33752556D01*
X140910613Y-33802714D01*
X140965473Y-33971556D01*
X141060960Y-34136944D01*
X141188747Y-34278866D01*
X141343248Y-34391118D01*
X141349276Y-34393802D01*
X141349278Y-34393803D01*
X141464559Y-34445129D01*
X141517712Y-34468794D01*
X141611113Y-34488647D01*
X141698056Y-34507128D01*
X141698061Y-34507128D01*
X141704513Y-34508500D01*
X141895487Y-34508500D01*
X141901939Y-34507128D01*
X141901944Y-34507128D01*
X141988887Y-34488647D01*
X142082288Y-34468794D01*
X142114252Y-34454563D01*
X142184618Y-34445129D01*
X142248915Y-34475235D01*
X142286728Y-34535324D01*
X142291500Y-34569670D01*
X142291500Y-39553020D01*
X142271498Y-39621141D01*
X142254595Y-39642115D01*
X140542115Y-41354595D01*
X140479803Y-41388621D01*
X140453020Y-41391500D01*
X138461843Y-41391500D01*
X138448236Y-41390763D01*
X138416738Y-41387341D01*
X138416733Y-41387341D01*
X138410612Y-41386676D01*
X138384362Y-41388973D01*
X138360612Y-41391050D01*
X138355786Y-41391379D01*
X138353314Y-41391500D01*
X138350231Y-41391500D01*
X138338262Y-41392674D01*
X138307494Y-41395690D01*
X138306181Y-41395812D01*
X138261916Y-41399685D01*
X138213587Y-41403913D01*
X138208468Y-41405400D01*
X138203167Y-41405920D01*
X138114166Y-41432791D01*
X138113033Y-41433126D01*
X138029586Y-41457370D01*
X138029582Y-41457372D01*
X138023664Y-41459091D01*
X138018932Y-41461544D01*
X138013831Y-41463084D01*
X138008388Y-41465978D01*
X137931740Y-41506731D01*
X137930574Y-41507343D01*
X137853547Y-41547271D01*
X137848074Y-41550108D01*
X137843911Y-41553431D01*
X137839204Y-41555934D01*
X137767082Y-41614755D01*
X137766226Y-41615446D01*
X137727027Y-41646738D01*
X137724523Y-41649242D01*
X137723805Y-41649884D01*
X137719472Y-41653585D01*
X137685938Y-41680935D01*
X137682011Y-41685682D01*
X137682009Y-41685684D01*
X137656713Y-41716262D01*
X137648723Y-41725042D01*
X136319171Y-43054595D01*
X136256859Y-43088620D01*
X136230076Y-43091500D01*
X136050231Y-43091500D01*
X136047175Y-43091800D01*
X136047168Y-43091800D01*
X135988660Y-43097537D01*
X135903167Y-43105920D01*
X135897266Y-43107702D01*
X135897264Y-43107702D01*
X135824334Y-43129721D01*
X135713831Y-43163084D01*
X135539204Y-43255934D01*
X135452938Y-43326291D01*
X135390713Y-43377040D01*
X135390710Y-43377043D01*
X135385938Y-43380935D01*
X135382011Y-43385682D01*
X135382009Y-43385684D01*
X135263799Y-43528575D01*
X135263797Y-43528579D01*
X135259870Y-43533325D01*
X135165802Y-43707299D01*
X135107318Y-43896232D01*
X135086645Y-44092925D01*
X135104570Y-44289888D01*
X135106310Y-44295798D01*
X135106310Y-44295801D01*
X135116353Y-44329926D01*
X135116397Y-44400923D01*
X135078051Y-44460673D01*
X135013488Y-44490206D01*
X134995479Y-44491500D01*
X112762817Y-44491500D01*
X112694696Y-44471498D01*
X112673722Y-44454595D01*
X112545405Y-44326278D01*
X112511379Y-44263966D01*
X112508500Y-44237183D01*
X112508500Y-39571073D01*
X112509855Y-39558944D01*
X112509373Y-39558905D01*
X112510093Y-39549954D01*
X112512074Y-39541200D01*
X112508742Y-39487492D01*
X112508500Y-39479690D01*
X112508500Y-39463487D01*
X112507016Y-39453122D01*
X112505987Y-39443072D01*
X112503611Y-39404784D01*
X112503055Y-39395823D01*
X112500007Y-39387379D01*
X112499409Y-39384492D01*
X112495174Y-39367510D01*
X112494353Y-39364704D01*
X112493080Y-39355813D01*
X112473481Y-39312708D01*
X112469672Y-39303349D01*
X112456645Y-39267265D01*
X112456642Y-39267260D01*
X112453595Y-39258819D01*
X112448300Y-39251571D01*
X112446915Y-39248966D01*
X112438099Y-39233877D01*
X112436506Y-39231386D01*
X112432792Y-39223218D01*
X112401882Y-39187345D01*
X112395604Y-39179438D01*
X112390447Y-39172378D01*
X112390446Y-39172376D01*
X112387575Y-39168447D01*
X112376600Y-39157472D01*
X112370242Y-39150624D01*
X112343576Y-39119676D01*
X112343571Y-39119672D01*
X112337713Y-39112873D01*
X112330181Y-39107991D01*
X112323930Y-39102538D01*
X112312074Y-39092946D01*
X110545405Y-37326278D01*
X110511380Y-37263966D01*
X110508500Y-37237183D01*
X110508500Y-30262817D01*
X110528502Y-30194696D01*
X110545405Y-30173722D01*
X112173722Y-28545405D01*
X112236034Y-28511379D01*
X112262817Y-28508500D01*
X113761076Y-28508500D01*
X113829197Y-28528502D01*
G37*
G04 #@! TD.AperFunction*
M02*
