M48
; DRILL file {KiCad 6.0.6-3a73a75311~116~ubuntu20.04.1} date mié 06 jul 2022 11:51:17
; FORMAT={-:-/ absolute / metric / decimal}
; #@! TF.CreationDate,2022-07-06T11:51:17+02:00
; #@! TF.GenerationSoftware,Kicad,Pcbnew,6.0.6-3a73a75311~116~ubuntu20.04.1
; #@! TF.FileFunction,Plated,1,2,PTH
FMAT,2
METRIC
; #@! TA.AperFunction,Plated,PTH,ViaDrill
T1C0.300
; #@! TA.AperFunction,Plated,PTH,ViaDrill
T2C0.400
; #@! TA.AperFunction,Plated,PTH,ViaDrill
T3C0.500
; #@! TA.AperFunction,Plated,PTH,ComponentDrill
T4C0.650
%
G90
G05
T1
X118.7Y-43.2
X123.5Y-33.5
X123.5Y-34.5
X123.5Y-35.5
X123.5Y-36.5
X123.5Y-37.5
X123.5Y-38.5
X123.5Y-39.5
X124.5Y-32.5
X124.5Y-33.5
X124.5Y-34.5
X124.5Y-35.5
X124.5Y-36.5
X124.5Y-37.5
X124.5Y-38.5
X124.5Y-39.5
X124.5Y-40.5
X125.5Y-32.5
X125.5Y-33.5
X125.5Y-34.5
X125.5Y-35.5
X125.5Y-36.5
X125.5Y-37.5
X125.5Y-38.5
X125.5Y-39.5
X125.5Y-40.5
X126.5Y-32.5
X126.5Y-33.5
X126.5Y-34.5
X126.5Y-35.5
X126.5Y-36.5
X126.5Y-37.5
X126.5Y-38.5
X126.5Y-39.5
X126.5Y-40.5
X127.5Y-32.5
X127.5Y-33.5
X127.5Y-34.5
X127.5Y-35.5
X127.5Y-36.5
X127.5Y-37.5
X127.5Y-38.5
X127.5Y-39.5
X127.5Y-40.5
X128.5Y-32.5
X128.5Y-33.5
X128.5Y-34.5
X128.5Y-35.5
X128.5Y-36.5
X128.5Y-37.5
X128.5Y-38.5
X128.5Y-39.5
X128.5Y-40.5
X129.5Y-32.5
X129.5Y-33.5
X129.5Y-34.5
X129.5Y-35.5
X129.5Y-36.5
X129.5Y-37.5
X129.5Y-38.5
X129.5Y-39.5
X129.5Y-40.5
X130.5Y-32.5
X130.5Y-33.5
X130.5Y-34.5
X130.5Y-35.5
X130.5Y-36.5
X130.5Y-37.5
X130.5Y-38.5
X130.5Y-39.5
X130.5Y-40.5
X131.5Y-32.5
X131.5Y-33.5
X131.5Y-34.5
X131.5Y-35.5
X131.5Y-36.5
X131.5Y-37.5
X131.5Y-38.5
X131.5Y-39.5
X131.5Y-40.5
X132.5Y-33.5
X132.5Y-34.5
X132.5Y-35.5
X132.5Y-36.5
X132.5Y-37.5
X132.5Y-38.5
X132.5Y-39.5
X133.5Y-34.5
X133.5Y-35.5
X133.5Y-36.5
X133.5Y-37.5
X133.5Y-38.5
X134.5Y-34.5
X134.5Y-35.5
X134.5Y-36.5
X134.5Y-37.5
X134.5Y-38.5
X135.5Y-35.5
X135.5Y-36.5
X135.5Y-37.5
X136.5Y-35.5
X136.5Y-36.5
X136.5Y-37.5
X137.5Y-35.5
X137.5Y-36.5
X138.5Y-35.5
X138.5Y-36.5
X138.6Y-30.649
X139.5Y-35.5
X139.5Y-36.5
X140.9Y-39.1
X141.0Y-30.649
T2
X114.1Y-29.9
X114.4Y-33.9
X115.5Y-39.2
X115.5Y-42.0
X120.375Y-35.5
X120.4Y-41.9
X135.2Y-32.9
X136.1Y-44.1
X141.8Y-33.6
T3
X113.0Y-40.0
X113.0Y-42.0
X113.0Y-44.0
X118.5Y-37.5
X120.5Y-44.0
X122.5Y-32.5
X122.5Y-41.5
X124.5Y-42.5
X127.5Y-42.5
X130.5Y-42.5
X132.5Y-41.5
T4
X139.65Y-44.1
X140.92Y-44.1
T0
M30
