G04 #@! TF.GenerationSoftware,KiCad,Pcbnew,6.0.6-3a73a75311~116~ubuntu20.04.1*
G04 #@! TF.CreationDate,2022-07-06T11:50:59+02:00*
G04 #@! TF.ProjectId,STSS-15X15,53545353-2d31-4355-9831-352e6b696361,rev?*
G04 #@! TF.SameCoordinates,Original*
G04 #@! TF.FileFunction,Copper,L1,Top*
G04 #@! TF.FilePolarity,Positive*
%FSLAX46Y46*%
G04 Gerber Fmt 4.6, Leading zero omitted, Abs format (unit mm)*
G04 Created by KiCad (PCBNEW 6.0.6-3a73a75311~116~ubuntu20.04.1) date 2022-07-06 11:50:59*
%MOMM*%
%LPD*%
G01*
G04 APERTURE LIST*
G04 Aperture macros list*
%AMRoundRect*
0 Rectangle with rounded corners*
0 $1 Rounding radius*
0 $2 $3 $4 $5 $6 $7 $8 $9 X,Y pos of 4 corners*
0 Add a 4 corners polygon primitive as box body*
4,1,4,$2,$3,$4,$5,$6,$7,$8,$9,$2,$3,0*
0 Add four circle primitives for the rounded corners*
1,1,$1+$1,$2,$3*
1,1,$1+$1,$4,$5*
1,1,$1+$1,$6,$7*
1,1,$1+$1,$8,$9*
0 Add four rect primitives between the rounded corners*
20,1,$1+$1,$2,$3,$4,$5,0*
20,1,$1+$1,$4,$5,$6,$7,0*
20,1,$1+$1,$6,$7,$8,$9,0*
20,1,$1+$1,$8,$9,$2,$3,0*%
G04 Aperture macros list end*
G04 #@! TA.AperFunction,SMDPad,CuDef*
%ADD10RoundRect,0.135000X0.185000X-0.135000X0.185000X0.135000X-0.185000X0.135000X-0.185000X-0.135000X0*%
G04 #@! TD*
G04 #@! TA.AperFunction,SMDPad,CuDef*
%ADD11RoundRect,0.225000X0.225000X0.250000X-0.225000X0.250000X-0.225000X-0.250000X0.225000X-0.250000X0*%
G04 #@! TD*
G04 #@! TA.AperFunction,SMDPad,CuDef*
%ADD12RoundRect,0.200000X0.275000X-0.200000X0.275000X0.200000X-0.275000X0.200000X-0.275000X-0.200000X0*%
G04 #@! TD*
G04 #@! TA.AperFunction,SMDPad,CuDef*
%ADD13RoundRect,0.200000X-0.200000X-0.275000X0.200000X-0.275000X0.200000X0.275000X-0.200000X0.275000X0*%
G04 #@! TD*
G04 #@! TA.AperFunction,SMDPad,CuDef*
%ADD14R,1.300000X0.300000*%
G04 #@! TD*
G04 #@! TA.AperFunction,SMDPad,CuDef*
%ADD15R,2.200000X1.800000*%
G04 #@! TD*
G04 #@! TA.AperFunction,SMDPad,CuDef*
%ADD16RoundRect,0.250000X-0.325000X-0.650000X0.325000X-0.650000X0.325000X0.650000X-0.325000X0.650000X0*%
G04 #@! TD*
G04 #@! TA.AperFunction,SMDPad,CuDef*
%ADD17RoundRect,0.200000X-0.275000X0.200000X-0.275000X-0.200000X0.275000X-0.200000X0.275000X0.200000X0*%
G04 #@! TD*
G04 #@! TA.AperFunction,SMDPad,CuDef*
%ADD18RoundRect,0.150000X0.150000X-0.725000X0.150000X0.725000X-0.150000X0.725000X-0.150000X-0.725000X0*%
G04 #@! TD*
G04 #@! TA.AperFunction,SMDPad,CuDef*
%ADD19RoundRect,0.225000X-0.250000X0.225000X-0.250000X-0.225000X0.250000X-0.225000X0.250000X0.225000X0*%
G04 #@! TD*
G04 #@! TA.AperFunction,SMDPad,CuDef*
%ADD20RoundRect,0.250000X-0.275000X-0.700000X0.275000X-0.700000X0.275000X0.700000X-0.275000X0.700000X0*%
G04 #@! TD*
G04 #@! TA.AperFunction,SMDPad,CuDef*
%ADD21RoundRect,0.162500X-0.825000X-0.162500X0.825000X-0.162500X0.825000X0.162500X-0.825000X0.162500X0*%
G04 #@! TD*
G04 #@! TA.AperFunction,SMDPad,CuDef*
%ADD22RoundRect,0.225000X-0.225000X-0.250000X0.225000X-0.250000X0.225000X0.250000X-0.225000X0.250000X0*%
G04 #@! TD*
G04 #@! TA.AperFunction,ComponentPad*
%ADD23R,1.000000X1.000000*%
G04 #@! TD*
G04 #@! TA.AperFunction,ComponentPad*
%ADD24O,1.000000X1.000000*%
G04 #@! TD*
G04 #@! TA.AperFunction,ViaPad*
%ADD25C,0.800000*%
G04 #@! TD*
G04 #@! TA.AperFunction,ViaPad*
%ADD26C,0.500000*%
G04 #@! TD*
G04 #@! TA.AperFunction,ViaPad*
%ADD27C,1.000000*%
G04 #@! TD*
G04 #@! TA.AperFunction,Conductor*
%ADD28C,1.000000*%
G04 #@! TD*
G04 #@! TA.AperFunction,Conductor*
%ADD29C,0.500000*%
G04 #@! TD*
G04 #@! TA.AperFunction,Conductor*
%ADD30C,0.250000*%
G04 #@! TD*
G04 APERTURE END LIST*
D10*
X141900000Y-32310000D03*
X141900000Y-31290000D03*
X139100000Y-32310000D03*
X139100000Y-31290000D03*
D11*
X112975000Y-35500000D03*
X111425000Y-35500000D03*
X144075000Y-40100000D03*
X142525000Y-40100000D03*
D10*
X140000000Y-32310000D03*
X140000000Y-31290000D03*
X137200000Y-32300000D03*
X137200000Y-31280000D03*
D12*
X119100000Y-31025000D03*
X119100000Y-29375000D03*
D13*
X141475000Y-35000000D03*
X143125000Y-35000000D03*
D14*
X118650000Y-39550000D03*
X118650000Y-40050000D03*
X118650000Y-40550000D03*
X118650000Y-41050000D03*
X118650000Y-41550000D03*
X118650000Y-42050000D03*
D15*
X115400000Y-43950000D03*
X115400000Y-37650000D03*
D13*
X141475000Y-38000000D03*
X143125000Y-38000000D03*
D10*
X138100000Y-32300000D03*
X138100000Y-31280000D03*
D16*
X141025000Y-42000000D03*
X143975000Y-42000000D03*
D13*
X141475000Y-36500000D03*
X143125000Y-36500000D03*
D17*
X119100000Y-32375000D03*
X119100000Y-34025000D03*
D18*
X136095000Y-39075000D03*
X137365000Y-39075000D03*
X138635000Y-39075000D03*
X139905000Y-39075000D03*
X139905000Y-33925000D03*
X138635000Y-33925000D03*
X137365000Y-33925000D03*
X136095000Y-33925000D03*
D19*
X136000000Y-30525000D03*
X136000000Y-32075000D03*
D20*
X136125000Y-42100000D03*
X139275000Y-42100000D03*
D10*
X141000000Y-32310000D03*
X141000000Y-31290000D03*
D21*
X111962500Y-30095000D03*
X111962500Y-31365000D03*
X111962500Y-32635000D03*
X111962500Y-33905000D03*
X117037500Y-33905000D03*
X117037500Y-32635000D03*
X117037500Y-31365000D03*
X117037500Y-30095000D03*
D22*
X117425000Y-35500000D03*
X118975000Y-35500000D03*
D23*
X139650000Y-44100000D03*
D24*
X140920000Y-44100000D03*
D25*
X120375500Y-35500000D03*
X120400000Y-41900000D03*
D26*
X141000000Y-30649500D03*
D25*
X141800000Y-33600000D03*
D26*
X138600000Y-30649500D03*
D25*
X135200000Y-32900000D03*
X114100000Y-29900000D03*
D26*
X123500000Y-37500000D03*
X131500000Y-38500000D03*
X132500000Y-34500000D03*
X127500000Y-39500000D03*
X136500000Y-37500000D03*
X125500000Y-40500000D03*
X127500000Y-35500000D03*
D27*
X113000000Y-40000000D03*
D26*
X123500000Y-39500000D03*
X125500000Y-37500000D03*
X132500000Y-33500000D03*
X128500000Y-38500000D03*
X126500000Y-40500000D03*
X134500000Y-36500000D03*
X130500000Y-38500000D03*
X128500000Y-34500000D03*
X139500000Y-36500000D03*
X133500000Y-34500000D03*
X124500000Y-40500000D03*
X123500000Y-35500000D03*
X128500000Y-36500000D03*
X131500000Y-40500000D03*
X125500000Y-39500000D03*
X137500000Y-36500000D03*
X125500000Y-34500000D03*
X130500000Y-35500000D03*
D27*
X118500000Y-37500000D03*
D26*
X133500000Y-38500000D03*
X128500000Y-32500000D03*
X125500000Y-33500000D03*
D27*
X130500000Y-42500000D03*
D26*
X132500000Y-38500000D03*
X129500000Y-40500000D03*
X124500000Y-35500000D03*
X134500000Y-34500000D03*
X128500000Y-35500000D03*
X134500000Y-35500000D03*
X123500000Y-38500000D03*
X118700000Y-43200000D03*
D27*
X132500000Y-41500000D03*
D26*
X128500000Y-37500000D03*
X126500000Y-35500000D03*
D27*
X127500000Y-42500000D03*
D26*
X130500000Y-40500000D03*
X134500000Y-37500000D03*
D27*
X113000000Y-44000000D03*
D26*
X129500000Y-32500000D03*
D25*
X115500000Y-39200000D03*
D26*
X129500000Y-33500000D03*
X138500000Y-35500000D03*
X127500000Y-37500000D03*
X130500000Y-33500000D03*
X123500000Y-34500000D03*
X133500000Y-37500000D03*
X127500000Y-38500000D03*
X124500000Y-39500000D03*
D25*
X115500000Y-42000000D03*
D26*
X140900500Y-39100000D03*
X124500000Y-34500000D03*
X137500000Y-35500000D03*
X133500000Y-36500000D03*
X131500000Y-36500000D03*
X131500000Y-35500000D03*
X129500000Y-38500000D03*
X123500000Y-36500000D03*
X132500000Y-39500000D03*
X129500000Y-36500000D03*
X132500000Y-35500000D03*
X126500000Y-36500000D03*
X136500000Y-36500000D03*
D27*
X120500000Y-44000000D03*
D26*
X132500000Y-36500000D03*
X129500000Y-35500000D03*
X127500000Y-40500000D03*
D27*
X122500000Y-32500000D03*
X124500000Y-42500000D03*
D26*
X129500000Y-37500000D03*
X128500000Y-33500000D03*
X130500000Y-39500000D03*
X139500000Y-35500000D03*
D27*
X113000000Y-42000000D03*
D26*
X131500000Y-33500000D03*
X130500000Y-32500000D03*
X124500000Y-33500000D03*
X135500000Y-37500000D03*
X126500000Y-37500000D03*
X127500000Y-36500000D03*
X125500000Y-35500000D03*
X127500000Y-34500000D03*
X130500000Y-36500000D03*
X134500000Y-38500000D03*
X131500000Y-32500000D03*
X138500000Y-36500000D03*
X127500000Y-33500000D03*
X135500000Y-35500000D03*
X126500000Y-32500000D03*
X130500000Y-37500000D03*
X125500000Y-36500000D03*
X124500000Y-36500000D03*
X124500000Y-37500000D03*
D27*
X122500000Y-41500000D03*
D26*
X129500000Y-39500000D03*
X131500000Y-39500000D03*
X129500000Y-34500000D03*
X126500000Y-39500000D03*
X125500000Y-32500000D03*
X128500000Y-39500000D03*
X136500000Y-35500000D03*
X131500000Y-34500000D03*
X124500000Y-32500000D03*
X123500000Y-33500000D03*
X124500000Y-38500000D03*
X131500000Y-37500000D03*
X126500000Y-34500000D03*
X126500000Y-38500000D03*
X132500000Y-37500000D03*
X135500000Y-36500000D03*
X127500000Y-32500000D03*
X130500000Y-34500000D03*
X125500000Y-38500000D03*
X133500000Y-35500000D03*
X126500000Y-33500000D03*
X128500000Y-40500000D03*
D25*
X136100000Y-44100000D03*
X114400000Y-33900000D03*
D28*
X111962500Y-31365000D02*
X111962500Y-32635000D01*
D29*
X141800000Y-33675000D02*
X143125000Y-35000000D01*
X111962500Y-32635000D02*
X111378794Y-32635000D01*
D30*
X119600000Y-41550000D02*
X118650000Y-41550000D01*
D29*
X135200000Y-32900000D02*
X135200000Y-33030000D01*
X110525000Y-33488794D02*
X110525000Y-34600000D01*
D30*
X118650000Y-41550000D02*
X116650000Y-41550000D01*
D29*
X143125000Y-35000000D02*
X143125000Y-36500000D01*
X141800000Y-33600000D02*
X141800000Y-33675000D01*
X138600000Y-30649500D02*
X138600000Y-30790000D01*
X135200000Y-32900000D02*
X135200000Y-32875000D01*
X135200000Y-32875000D02*
X136000000Y-32075000D01*
D30*
X111425000Y-36325000D02*
X111425000Y-35500000D01*
D29*
X111378794Y-32635000D02*
X110525000Y-33488794D01*
X111425000Y-35500000D02*
X111425000Y-36525000D01*
X118975000Y-35500000D02*
X120375500Y-35500000D01*
X110525000Y-34600000D02*
X111425000Y-35500000D01*
X138600000Y-30649500D02*
X138600000Y-30780000D01*
X138600000Y-30790000D02*
X139100000Y-31290000D01*
D30*
X119950000Y-41900000D02*
X119600000Y-41550000D01*
D29*
X143125000Y-36500000D02*
X143125000Y-38000000D01*
X111425000Y-36525000D02*
X116375000Y-41475000D01*
D30*
X116650000Y-41550000D02*
X111425000Y-36325000D01*
D29*
X116375000Y-41475000D02*
X117550000Y-41475000D01*
X138600000Y-30780000D02*
X138100000Y-31280000D01*
X135200000Y-33030000D02*
X136095000Y-33925000D01*
D30*
X120400000Y-41900000D02*
X119950000Y-41900000D01*
D29*
X141000000Y-31290000D02*
X141000000Y-30649500D01*
D28*
X143975000Y-42000000D02*
X141875000Y-44100000D01*
X113905000Y-30095000D02*
X111962500Y-30095000D01*
X141875000Y-44100000D02*
X140920000Y-44100000D01*
X144075000Y-41900000D02*
X143975000Y-42000000D01*
X144075000Y-40100000D02*
X144075000Y-41900000D01*
X114100000Y-29900000D02*
X113905000Y-30095000D01*
X139275000Y-43725000D02*
X139650000Y-44100000D01*
X142525000Y-40500000D02*
X141025000Y-42000000D01*
X141025000Y-42000000D02*
X139375000Y-42000000D01*
X141025000Y-42000000D02*
X139650000Y-43375000D01*
X139275000Y-42100000D02*
X139275000Y-43725000D01*
X139375000Y-42000000D02*
X139275000Y-42100000D01*
X139650000Y-43375000D02*
X139650000Y-44100000D01*
X142525000Y-40100000D02*
X142525000Y-40500000D01*
D29*
X118840000Y-32635000D02*
X119100000Y-32375000D01*
D30*
X121100000Y-33600000D02*
X119875000Y-32375000D01*
X118650000Y-39550000D02*
X120150000Y-39550000D01*
X121100000Y-38600000D02*
X121100000Y-33600000D01*
X120150000Y-39550000D02*
X121100000Y-38600000D01*
X119875000Y-32375000D02*
X119100000Y-32375000D01*
D29*
X117037500Y-32635000D02*
X118840000Y-32635000D01*
D30*
X118650000Y-40050000D02*
X120286396Y-40050000D01*
D29*
X117037500Y-31365000D02*
X118760000Y-31365000D01*
D30*
X119161396Y-31025000D02*
X119100000Y-31025000D01*
D29*
X118760000Y-31365000D02*
X119100000Y-31025000D01*
D30*
X121550000Y-38786396D02*
X121550000Y-33413604D01*
X121550000Y-33413604D02*
X119161396Y-31025000D01*
X120286396Y-40050000D02*
X121550000Y-38786396D01*
X134400000Y-42600000D02*
X134400000Y-40770000D01*
X134400000Y-40770000D02*
X136095000Y-39075000D01*
X118650000Y-40550000D02*
X120711701Y-40550000D01*
X137468249Y-37425000D02*
X139938604Y-37425000D01*
X121575000Y-41413299D02*
X121575000Y-42938604D01*
X136095000Y-38798249D02*
X137468249Y-37425000D01*
X120711701Y-40550000D02*
X121575000Y-41413299D01*
X136095000Y-39075000D02*
X136095000Y-38798249D01*
X122686396Y-44050000D02*
X132950000Y-44050000D01*
X140581802Y-35893198D02*
X141475000Y-35000000D01*
X121575000Y-42938604D02*
X122686396Y-44050000D01*
X140581802Y-36781802D02*
X140581802Y-35893198D01*
X132950000Y-44050000D02*
X134400000Y-42600000D01*
X139938604Y-37425000D02*
X140581802Y-36781802D01*
X140125000Y-37875000D02*
X137925000Y-37875000D01*
X121125000Y-41599695D02*
X121125000Y-43125000D01*
X118650000Y-41050000D02*
X120575305Y-41050000D01*
X137925000Y-37875000D02*
X137365000Y-38435000D01*
X135748249Y-40275000D02*
X136441751Y-40275000D01*
X137365000Y-38435000D02*
X137365000Y-39075000D01*
X134850000Y-42786396D02*
X134850000Y-41173249D01*
X136441751Y-40275000D02*
X137365000Y-39351751D01*
X120575305Y-41050000D02*
X121125000Y-41599695D01*
X121125000Y-43125000D02*
X122500000Y-44500000D01*
X141475000Y-36500000D02*
X141475000Y-36525000D01*
X133136396Y-44500000D02*
X134850000Y-42786396D01*
X137365000Y-39351751D02*
X137365000Y-39075000D01*
X141475000Y-36525000D02*
X140125000Y-37875000D01*
X134850000Y-41173249D02*
X135748249Y-40275000D01*
X122500000Y-44500000D02*
X133136396Y-44500000D01*
X138635000Y-40035000D02*
X138635000Y-39075000D01*
X141475000Y-38000000D02*
X141475000Y-40025000D01*
X138635000Y-38765000D02*
X138635000Y-39075000D01*
X139100000Y-40500000D02*
X138635000Y-40035000D01*
X141000000Y-40500000D02*
X139100000Y-40500000D01*
X141475000Y-38000000D02*
X141350000Y-37875000D01*
D29*
X138635000Y-39528528D02*
X138635000Y-39075000D01*
D30*
X141475000Y-40025000D02*
X141000000Y-40500000D01*
D28*
X117037500Y-33905000D02*
X117037500Y-35112500D01*
D30*
X119800000Y-42700000D02*
X119800000Y-43200000D01*
D29*
X136755000Y-31280000D02*
X136000000Y-30525000D01*
D30*
X118600000Y-43100000D02*
X118700000Y-43200000D01*
D29*
X116453794Y-33905000D02*
X117037500Y-33905000D01*
D28*
X119975000Y-28500000D02*
X133975000Y-28500000D01*
D29*
X141900000Y-29900000D02*
X141900000Y-31290000D01*
D28*
X112975000Y-35500000D02*
X113250000Y-35500000D01*
X115400000Y-43950000D02*
X115400000Y-42100000D01*
X117425000Y-35500000D02*
X117425000Y-35625000D01*
D29*
X115500000Y-32951206D02*
X116453794Y-33905000D01*
X139905000Y-39075000D02*
X140875500Y-39075000D01*
D28*
X115500000Y-39200000D02*
X115500000Y-37750000D01*
D30*
X118150000Y-42050000D02*
X117600000Y-42600000D01*
D28*
X115500000Y-37750000D02*
X115400000Y-37650000D01*
D29*
X137400000Y-29700000D02*
X139800000Y-29700000D01*
D30*
X115900000Y-42600000D02*
X115500000Y-42200000D01*
D29*
X139800000Y-29700000D02*
X141700000Y-29700000D01*
D30*
X119800000Y-43200000D02*
X119050000Y-43950000D01*
D28*
X133975000Y-28500000D02*
X136000000Y-30525000D01*
D30*
X119050000Y-43950000D02*
X115400000Y-43950000D01*
D28*
X115400000Y-42100000D02*
X115500000Y-42000000D01*
D30*
X115500000Y-42200000D02*
X115500000Y-42000000D01*
D28*
X113250000Y-35500000D02*
X115400000Y-37650000D01*
D29*
X140000000Y-29900000D02*
X140000000Y-31290000D01*
X116453794Y-30095000D02*
X115500000Y-31048794D01*
X136000000Y-30525000D02*
X136575000Y-30525000D01*
X117037500Y-30095000D02*
X116453794Y-30095000D01*
X136575000Y-30525000D02*
X137400000Y-29700000D01*
D30*
X117600000Y-42600000D02*
X115900000Y-42600000D01*
D28*
X117037500Y-30095000D02*
X117757500Y-29375000D01*
X119100000Y-34025000D02*
X117157500Y-34025000D01*
D30*
X118650000Y-42050000D02*
X118650000Y-42950000D01*
X118650000Y-42950000D02*
X118600000Y-43000000D01*
X118650000Y-42050000D02*
X118150000Y-42050000D01*
X119150000Y-42050000D02*
X119800000Y-42700000D01*
D29*
X115500000Y-31048794D02*
X115500000Y-32951206D01*
D28*
X117425000Y-35625000D02*
X115400000Y-37650000D01*
D29*
X140875500Y-39075000D02*
X140900500Y-39100000D01*
D30*
X118600000Y-43000000D02*
X118600000Y-43100000D01*
D29*
X139800000Y-29700000D02*
X140000000Y-29900000D01*
X137200000Y-31280000D02*
X136755000Y-31280000D01*
D28*
X117157500Y-34025000D02*
X117037500Y-33905000D01*
X119100000Y-29375000D02*
X119975000Y-28500000D01*
X117757500Y-29375000D02*
X119100000Y-29375000D01*
X117037500Y-35112500D02*
X117425000Y-35500000D01*
D30*
X118650000Y-42050000D02*
X119150000Y-42050000D01*
D29*
X141700000Y-29700000D02*
X141900000Y-29900000D01*
X139796472Y-32310000D02*
X140000000Y-32310000D01*
X139100000Y-32310000D02*
X140000000Y-32310000D01*
X138635000Y-33925000D02*
X138635000Y-33471472D01*
X138635000Y-33471472D02*
X139796472Y-32310000D01*
X138100000Y-32300000D02*
X137365000Y-33035000D01*
X137365000Y-33035000D02*
X137365000Y-33925000D01*
X137365000Y-32465000D02*
X137200000Y-32300000D01*
X137365000Y-33925000D02*
X137365000Y-32465000D01*
X141000000Y-32830000D02*
X139905000Y-33925000D01*
X141900000Y-32310000D02*
X141000000Y-32310000D01*
X141000000Y-32310000D02*
X141000000Y-32830000D01*
D28*
X136125000Y-42100000D02*
X136125000Y-44075000D01*
X111962500Y-33905000D02*
X114395000Y-33905000D01*
X136125000Y-44075000D02*
X136100000Y-44100000D01*
X114395000Y-33905000D02*
X114400000Y-33900000D01*
G04 #@! TA.AperFunction,Conductor*
G36*
X115511046Y-34207708D02*
G01*
X115564186Y-34254790D01*
X115577677Y-34284059D01*
X115594643Y-34338198D01*
X115600849Y-34351943D01*
X115677050Y-34477765D01*
X115686357Y-34489634D01*
X115790366Y-34593643D01*
X115802235Y-34602950D01*
X115928057Y-34679151D01*
X115941802Y-34685357D01*
X115988529Y-34700000D01*
X115015956Y-34700000D01*
X115027918Y-34690245D01*
X115028774Y-34689554D01*
X115067973Y-34658262D01*
X115070477Y-34655758D01*
X115071195Y-34655116D01*
X115075528Y-34651415D01*
X115109062Y-34624065D01*
X115138292Y-34588732D01*
X115144069Y-34582384D01*
X115144065Y-34582381D01*
X115146129Y-34580105D01*
X115148309Y-34577925D01*
X115177441Y-34542460D01*
X115220832Y-34489634D01*
X115242103Y-34463739D01*
X115335562Y-34289437D01*
X115337364Y-34283542D01*
X115339732Y-34277854D01*
X115341191Y-34278461D01*
X115375985Y-34225610D01*
X115440887Y-34196830D01*
X115511046Y-34207708D01*
G37*
G04 #@! TD.AperFunction*
G04 #@! TA.AperFunction,Conductor*
G36*
X118300000Y-34279000D02*
G01*
X118201238Y-34279000D01*
X118133117Y-34258998D01*
X118086624Y-34205342D01*
X118080342Y-34188498D01*
X118072525Y-34161876D01*
X118071135Y-34160671D01*
X118063452Y-34159000D01*
X116909500Y-34159000D01*
X116841379Y-34138998D01*
X116794886Y-34085342D01*
X116783500Y-34033000D01*
X116783500Y-33777000D01*
X116803502Y-33708879D01*
X116857158Y-33662386D01*
X116909500Y-33651000D01*
X118300000Y-33651000D01*
X118300000Y-34279000D01*
G37*
G04 #@! TD.AperFunction*
G04 #@! TA.AperFunction,Conductor*
G36*
X118096998Y-29210473D02*
G01*
X118043342Y-29256966D01*
X117979471Y-29267823D01*
X117918989Y-29262266D01*
X117913200Y-29262000D01*
X117309615Y-29262000D01*
X117294376Y-29266475D01*
X117293171Y-29267865D01*
X117291500Y-29275548D01*
X117291500Y-30223000D01*
X117271498Y-30291121D01*
X117217842Y-30337614D01*
X117165500Y-30349000D01*
X115563598Y-30349000D01*
X115549053Y-30353271D01*
X115546990Y-30365403D01*
X115547774Y-30373931D01*
X115550385Y-30386967D01*
X115594643Y-30528198D01*
X115600849Y-30541942D01*
X115674919Y-30664246D01*
X115693098Y-30732876D01*
X115674919Y-30794789D01*
X115600393Y-30917846D01*
X115600391Y-30917850D01*
X115596457Y-30924346D01*
X115594186Y-30931593D01*
X115594185Y-30931595D01*
X115576425Y-30988269D01*
X115547890Y-31079322D01*
X115541500Y-31148867D01*
X115541501Y-31581132D01*
X115541764Y-31583991D01*
X115541764Y-31583999D01*
X115544929Y-31618446D01*
X115547890Y-31650678D01*
X115596457Y-31805654D01*
X115600391Y-31812150D01*
X115600393Y-31812154D01*
X115674627Y-31934729D01*
X115692806Y-32003358D01*
X115674627Y-32065271D01*
X115600393Y-32187846D01*
X115600391Y-32187850D01*
X115596457Y-32194346D01*
X115547890Y-32349322D01*
X115541500Y-32418867D01*
X115541501Y-32851132D01*
X115547890Y-32920678D01*
X115549889Y-32927056D01*
X115549889Y-32927057D01*
X115591208Y-33058903D01*
X115596457Y-33075654D01*
X115600391Y-33082150D01*
X115600393Y-33082154D01*
X115674919Y-33205211D01*
X115693098Y-33273840D01*
X115674919Y-33335754D01*
X115600849Y-33458058D01*
X115594643Y-33471802D01*
X115579572Y-33519895D01*
X115540115Y-33578917D01*
X115475011Y-33607237D01*
X115404932Y-33595864D01*
X115352125Y-33548409D01*
X115343154Y-33528389D01*
X115342349Y-33528717D01*
X115340019Y-33523007D01*
X115338259Y-33517104D01*
X115246018Y-33342154D01*
X115240836Y-33335754D01*
X115125432Y-33193243D01*
X115125431Y-33193242D01*
X115121553Y-33188453D01*
X115059364Y-33136639D01*
X114974338Y-33065798D01*
X114974337Y-33065797D01*
X114969604Y-33061854D01*
X114795959Y-32967178D01*
X114667932Y-32927057D01*
X114613114Y-32909878D01*
X114613111Y-32909877D01*
X114607232Y-32908035D01*
X114601109Y-32907370D01*
X114601105Y-32907369D01*
X114416737Y-32887341D01*
X114416733Y-32887341D01*
X114410612Y-32886676D01*
X114308409Y-32895617D01*
X114303795Y-32896021D01*
X114292814Y-32896500D01*
X113584500Y-32896500D01*
X113516379Y-32876498D01*
X113469886Y-32822842D01*
X113458500Y-32770500D01*
X113458499Y-32421751D01*
X113458499Y-32418868D01*
X113458234Y-32415976D01*
X113452721Y-32355976D01*
X113452110Y-32349322D01*
X113403543Y-32194346D01*
X113399609Y-32187850D01*
X113399607Y-32187846D01*
X113325373Y-32065271D01*
X113307194Y-31996642D01*
X113325373Y-31934729D01*
X113399607Y-31812154D01*
X113399609Y-31812150D01*
X113403543Y-31805654D01*
X113452110Y-31650678D01*
X113458500Y-31581133D01*
X113458499Y-31229499D01*
X113478501Y-31161380D01*
X113532156Y-31114887D01*
X113584499Y-31103500D01*
X113843157Y-31103500D01*
X113856764Y-31104237D01*
X113888262Y-31107659D01*
X113888267Y-31107659D01*
X113894388Y-31108324D01*
X113920638Y-31106027D01*
X113944388Y-31103950D01*
X113949214Y-31103621D01*
X113951686Y-31103500D01*
X113954769Y-31103500D01*
X113966738Y-31102326D01*
X113997506Y-31099310D01*
X113998819Y-31099188D01*
X114043084Y-31095315D01*
X114091413Y-31091087D01*
X114096532Y-31089600D01*
X114101833Y-31089080D01*
X114190834Y-31062209D01*
X114191967Y-31061874D01*
X114275414Y-31037630D01*
X114275418Y-31037628D01*
X114281336Y-31035909D01*
X114286068Y-31033456D01*
X114291169Y-31031916D01*
X114296612Y-31029022D01*
X114373260Y-30988269D01*
X114374426Y-30987657D01*
X114451453Y-30947729D01*
X114456926Y-30944892D01*
X114461089Y-30941569D01*
X114465796Y-30939066D01*
X114537918Y-30880245D01*
X114538774Y-30879554D01*
X114577973Y-30848262D01*
X114580477Y-30845758D01*
X114581195Y-30845116D01*
X114585528Y-30841415D01*
X114619062Y-30814065D01*
X114648289Y-30778735D01*
X114656279Y-30769955D01*
X114848309Y-30577925D01*
X114942103Y-30463739D01*
X114994830Y-30365403D01*
X115032650Y-30294870D01*
X115032651Y-30294869D01*
X115035563Y-30289437D01*
X115086373Y-30123247D01*
X115091585Y-30106200D01*
X115091585Y-30106198D01*
X115093388Y-30100302D01*
X115113374Y-29903537D01*
X115105757Y-29822960D01*
X115547140Y-29822960D01*
X115550063Y-29837836D01*
X115561957Y-29841000D01*
X116765385Y-29841000D01*
X116780624Y-29836525D01*
X116781829Y-29835135D01*
X116783500Y-29827452D01*
X116783500Y-29280115D01*
X116779025Y-29264876D01*
X116777635Y-29263671D01*
X116769952Y-29262000D01*
X116161800Y-29262000D01*
X116156011Y-29262266D01*
X116096077Y-29267773D01*
X116083030Y-29270386D01*
X115941802Y-29314643D01*
X115928057Y-29320849D01*
X115802235Y-29397050D01*
X115790366Y-29406357D01*
X115686357Y-29510366D01*
X115677050Y-29522235D01*
X115600849Y-29648057D01*
X115594643Y-29661802D01*
X115550385Y-29803033D01*
X115547774Y-29816069D01*
X115547140Y-29822960D01*
X115105757Y-29822960D01*
X115094762Y-29706638D01*
X115082724Y-29666255D01*
X115040020Y-29523007D01*
X115040019Y-29523005D01*
X115038260Y-29517104D01*
X114946018Y-29342153D01*
X114942141Y-29337365D01*
X114830905Y-29200000D01*
X118100073Y-29200000D01*
X118096998Y-29210473D01*
G37*
G04 #@! TD.AperFunction*
G04 #@! TA.AperFunction,Conductor*
G36*
X110717012Y-36836215D02*
G01*
X110741316Y-36867495D01*
X110742167Y-36866937D01*
X110782186Y-36927976D01*
X110784523Y-36931680D01*
X110822405Y-36994107D01*
X110826121Y-36998315D01*
X110826122Y-36998316D01*
X110829803Y-37002484D01*
X110829776Y-37002508D01*
X110832429Y-37005500D01*
X110835132Y-37008733D01*
X110839144Y-37014852D01*
X110844456Y-37019884D01*
X110895383Y-37068128D01*
X110897825Y-37070506D01*
X115791230Y-41963911D01*
X115803616Y-41978323D01*
X115812149Y-41989918D01*
X115812154Y-41989923D01*
X115816492Y-41995818D01*
X115822070Y-42000557D01*
X115822073Y-42000560D01*
X115856768Y-42030035D01*
X115864284Y-42036965D01*
X115869979Y-42042660D01*
X115872861Y-42044940D01*
X115892251Y-42060281D01*
X115895655Y-42063072D01*
X115945703Y-42105591D01*
X115951285Y-42110333D01*
X115957801Y-42113661D01*
X115962850Y-42117028D01*
X115967979Y-42120195D01*
X115973716Y-42124734D01*
X116039875Y-42155655D01*
X116043769Y-42157558D01*
X116108808Y-42190769D01*
X116115916Y-42192508D01*
X116121559Y-42194607D01*
X116127322Y-42196524D01*
X116133950Y-42199622D01*
X116141112Y-42201112D01*
X116141113Y-42201112D01*
X116205412Y-42214486D01*
X116209696Y-42215456D01*
X116280610Y-42232808D01*
X116286212Y-42233156D01*
X116286215Y-42233156D01*
X116291764Y-42233500D01*
X116291762Y-42233536D01*
X116295755Y-42233775D01*
X116299947Y-42234149D01*
X116307115Y-42235640D01*
X116384520Y-42233546D01*
X116387928Y-42233500D01*
X117382664Y-42233500D01*
X117450785Y-42253502D01*
X117497278Y-42307158D01*
X117500646Y-42315270D01*
X117546676Y-42438054D01*
X117555214Y-42453649D01*
X117631715Y-42555724D01*
X117644276Y-42568285D01*
X117746351Y-42644786D01*
X117761946Y-42653324D01*
X117882394Y-42698478D01*
X117897649Y-42702105D01*
X117948514Y-42707631D01*
X117955328Y-42708000D01*
X118481885Y-42708000D01*
X118497124Y-42703525D01*
X118498329Y-42702135D01*
X118500000Y-42694452D01*
X118500000Y-42334500D01*
X118520002Y-42266379D01*
X118573658Y-42219886D01*
X118626000Y-42208500D01*
X118674000Y-42208500D01*
X118742121Y-42228502D01*
X118788614Y-42282158D01*
X118800000Y-42334500D01*
X118800000Y-42689884D01*
X118804475Y-42705123D01*
X118805865Y-42706328D01*
X118813548Y-42707999D01*
X119344669Y-42707999D01*
X119351490Y-42707629D01*
X119402352Y-42702105D01*
X119417604Y-42698479D01*
X119538054Y-42653324D01*
X119553649Y-42644786D01*
X119639631Y-42580346D01*
X119706138Y-42555498D01*
X119775520Y-42570551D01*
X119789251Y-42579232D01*
X119943248Y-42691118D01*
X119949276Y-42693802D01*
X119949278Y-42693803D01*
X120111681Y-42766109D01*
X120117712Y-42768794D01*
X120211113Y-42788647D01*
X120298056Y-42807128D01*
X120298061Y-42807128D01*
X120304513Y-42808500D01*
X120365500Y-42808500D01*
X120433621Y-42828502D01*
X120480114Y-42882158D01*
X120491500Y-42934500D01*
X120491500Y-43046233D01*
X120490973Y-43057416D01*
X120489298Y-43064909D01*
X120489547Y-43072835D01*
X120489547Y-43072836D01*
X120491438Y-43132986D01*
X120491500Y-43136945D01*
X120491500Y-43164856D01*
X120491997Y-43168790D01*
X120491997Y-43168791D01*
X120492005Y-43168856D01*
X120492938Y-43180693D01*
X120494327Y-43224889D01*
X120499978Y-43244339D01*
X120503987Y-43263700D01*
X120506526Y-43283797D01*
X120509445Y-43291168D01*
X120509445Y-43291170D01*
X120522804Y-43324912D01*
X120526649Y-43336142D01*
X120538982Y-43378593D01*
X120543015Y-43385412D01*
X120543017Y-43385417D01*
X120549293Y-43396028D01*
X120557988Y-43413776D01*
X120565448Y-43432617D01*
X120570110Y-43439033D01*
X120570110Y-43439034D01*
X120591436Y-43468387D01*
X120597952Y-43478307D01*
X120620458Y-43516362D01*
X120634779Y-43530683D01*
X120647619Y-43545716D01*
X120659528Y-43562107D01*
X120665634Y-43567158D01*
X120693605Y-43590298D01*
X120702384Y-43598288D01*
X121380501Y-44276405D01*
X121414527Y-44338717D01*
X121409462Y-44409532D01*
X121366915Y-44466368D01*
X121300395Y-44491179D01*
X121291406Y-44491500D01*
X117134000Y-44491500D01*
X117065879Y-44471498D01*
X117019386Y-44417842D01*
X117008000Y-44365500D01*
X117008000Y-44222115D01*
X117003525Y-44206876D01*
X117002135Y-44205671D01*
X116994452Y-44204000D01*
X113810116Y-44204000D01*
X113794877Y-44208475D01*
X113793672Y-44209865D01*
X113792001Y-44217548D01*
X113792001Y-44365500D01*
X113771999Y-44433621D01*
X113718343Y-44480114D01*
X113666001Y-44491500D01*
X112762817Y-44491500D01*
X112694696Y-44471498D01*
X112673722Y-44454595D01*
X112545405Y-44326278D01*
X112511379Y-44263966D01*
X112508500Y-44237183D01*
X112508500Y-43677885D01*
X113792000Y-43677885D01*
X113796475Y-43693124D01*
X113797865Y-43694329D01*
X113805548Y-43696000D01*
X115127885Y-43696000D01*
X115143124Y-43691525D01*
X115144329Y-43690135D01*
X115146000Y-43682452D01*
X115146000Y-43677885D01*
X115654000Y-43677885D01*
X115658475Y-43693124D01*
X115659865Y-43694329D01*
X115667548Y-43696000D01*
X116989884Y-43696000D01*
X117005123Y-43691525D01*
X117006328Y-43690135D01*
X117007999Y-43682452D01*
X117007999Y-43005331D01*
X117007629Y-42998510D01*
X117002105Y-42947648D01*
X116998479Y-42932396D01*
X116953324Y-42811946D01*
X116944786Y-42796351D01*
X116868285Y-42694276D01*
X116855724Y-42681715D01*
X116753649Y-42605214D01*
X116738054Y-42596676D01*
X116617606Y-42551522D01*
X116602351Y-42547895D01*
X116551486Y-42542369D01*
X116544672Y-42542000D01*
X115672115Y-42542000D01*
X115656876Y-42546475D01*
X115655671Y-42547865D01*
X115654000Y-42555548D01*
X115654000Y-43677885D01*
X115146000Y-43677885D01*
X115146000Y-42560116D01*
X115141525Y-42544877D01*
X115140135Y-42543672D01*
X115132452Y-42542001D01*
X114255331Y-42542001D01*
X114248510Y-42542371D01*
X114197648Y-42547895D01*
X114182396Y-42551521D01*
X114061946Y-42596676D01*
X114046351Y-42605214D01*
X113944276Y-42681715D01*
X113931715Y-42694276D01*
X113855214Y-42796351D01*
X113846676Y-42811946D01*
X113801522Y-42932394D01*
X113797895Y-42947649D01*
X113792369Y-42998514D01*
X113792000Y-43005328D01*
X113792000Y-43677885D01*
X112508500Y-43677885D01*
X112508500Y-39571073D01*
X112509855Y-39558944D01*
X112509373Y-39558905D01*
X112510093Y-39549954D01*
X112512074Y-39541200D01*
X112508742Y-39487492D01*
X112508500Y-39479690D01*
X112508500Y-39463487D01*
X112507016Y-39453122D01*
X112505987Y-39443072D01*
X112503611Y-39404784D01*
X112503055Y-39395823D01*
X112500007Y-39387379D01*
X112499409Y-39384492D01*
X112495174Y-39367510D01*
X112494353Y-39364704D01*
X112493080Y-39355813D01*
X112473481Y-39312708D01*
X112469672Y-39303349D01*
X112456645Y-39267265D01*
X112456642Y-39267260D01*
X112453595Y-39258819D01*
X112448300Y-39251571D01*
X112446915Y-39248966D01*
X112438099Y-39233877D01*
X112436506Y-39231386D01*
X112432792Y-39223218D01*
X112401882Y-39187345D01*
X112395604Y-39179438D01*
X112390447Y-39172378D01*
X112390446Y-39172376D01*
X112387575Y-39168447D01*
X112376600Y-39157472D01*
X112370242Y-39150624D01*
X112343576Y-39119676D01*
X112343571Y-39119672D01*
X112337713Y-39112873D01*
X112330181Y-39107991D01*
X112323930Y-39102538D01*
X112312074Y-39092946D01*
X110545405Y-37326278D01*
X110511380Y-37263966D01*
X110508500Y-37237183D01*
X110508500Y-36931439D01*
X110528502Y-36863318D01*
X110582158Y-36816825D01*
X110652432Y-36806721D01*
X110717012Y-36836215D01*
G37*
G04 #@! TD.AperFunction*
G04 #@! TA.AperFunction,Conductor*
G36*
X142305304Y-28528502D02*
G01*
X142326278Y-28545405D01*
X144454595Y-30673722D01*
X144488621Y-30736034D01*
X144491500Y-30762817D01*
X144491500Y-38991558D01*
X144471498Y-39059679D01*
X144417842Y-39106172D01*
X144355173Y-39116489D01*
X144355147Y-39116992D01*
X144352833Y-39116874D01*
X144352662Y-39116902D01*
X144351943Y-39116828D01*
X144351924Y-39116827D01*
X144348732Y-39116500D01*
X144327485Y-39116500D01*
X144290233Y-39110867D01*
X144278768Y-39107318D01*
X144219830Y-39101123D01*
X144088204Y-39087289D01*
X144088202Y-39087289D01*
X144082075Y-39086645D01*
X144018047Y-39092472D01*
X143891251Y-39104011D01*
X143891248Y-39104012D01*
X143885112Y-39104570D01*
X143879206Y-39106308D01*
X143879202Y-39106309D01*
X143861994Y-39111374D01*
X143826419Y-39116500D01*
X143801268Y-39116500D01*
X143759249Y-39120860D01*
X143689429Y-39107996D01*
X143637647Y-39059425D01*
X143620344Y-38990569D01*
X143643014Y-38923289D01*
X143680975Y-38887757D01*
X143758880Y-38840576D01*
X143758879Y-38840576D01*
X143765381Y-38836639D01*
X143886639Y-38715381D01*
X143975472Y-38568699D01*
X144026753Y-38405062D01*
X144033500Y-38331635D01*
X144033499Y-37668366D01*
X144026753Y-37594938D01*
X144022386Y-37581002D01*
X143977744Y-37438550D01*
X143977743Y-37438548D01*
X143975472Y-37431301D01*
X143905202Y-37315270D01*
X143887023Y-37246642D01*
X143905202Y-37184729D01*
X143950000Y-37110759D01*
X143975472Y-37068699D01*
X143995278Y-37005500D01*
X144017439Y-36934782D01*
X144026753Y-36905062D01*
X144033500Y-36831635D01*
X144033499Y-36168366D01*
X144026753Y-36094938D01*
X144016828Y-36063268D01*
X143977744Y-35938550D01*
X143977743Y-35938548D01*
X143975472Y-35931301D01*
X143905202Y-35815270D01*
X143887023Y-35746642D01*
X143905202Y-35684729D01*
X143916658Y-35665814D01*
X143975472Y-35568699D01*
X144026753Y-35405062D01*
X144033500Y-35331635D01*
X144033499Y-34668366D01*
X144032230Y-34654545D01*
X144027364Y-34601592D01*
X144026753Y-34594938D01*
X144022462Y-34581244D01*
X143977744Y-34438550D01*
X143977743Y-34438548D01*
X143975472Y-34431301D01*
X143886639Y-34284619D01*
X143765381Y-34163361D01*
X143618699Y-34074528D01*
X143611452Y-34072257D01*
X143611450Y-34072256D01*
X143545164Y-34051483D01*
X143455062Y-34023247D01*
X143381635Y-34016500D01*
X143266371Y-34016500D01*
X143198250Y-33996498D01*
X143177276Y-33979595D01*
X142735169Y-33537488D01*
X142701143Y-33475176D01*
X142698954Y-33461564D01*
X142694232Y-33416636D01*
X142694232Y-33416635D01*
X142693542Y-33410072D01*
X142690809Y-33401659D01*
X142636569Y-33234729D01*
X142634527Y-33228444D01*
X142621114Y-33205211D01*
X142580023Y-33134040D01*
X142539040Y-33063056D01*
X142534620Y-33058148D01*
X142533608Y-33056754D01*
X142509750Y-32989886D01*
X142525830Y-32920735D01*
X142546449Y-32893598D01*
X142597506Y-32842541D01*
X142680269Y-32702596D01*
X142725629Y-32546466D01*
X142727048Y-32528444D01*
X142728307Y-32512444D01*
X142728307Y-32512438D01*
X142728500Y-32509989D01*
X142728499Y-32110012D01*
X142725629Y-32073534D01*
X142688162Y-31944572D01*
X142682481Y-31925017D01*
X142682480Y-31925015D01*
X142680269Y-31917404D01*
X142648477Y-31863647D01*
X142631018Y-31794834D01*
X142648478Y-31735370D01*
X142675771Y-31689220D01*
X142682019Y-31674783D01*
X142714961Y-31561395D01*
X142714921Y-31547295D01*
X142707651Y-31544000D01*
X142237542Y-31544000D01*
X142202390Y-31538997D01*
X142192647Y-31536166D01*
X142192640Y-31536165D01*
X142186466Y-31534371D01*
X142180059Y-31533867D01*
X142180055Y-31533866D01*
X142152444Y-31531693D01*
X142152438Y-31531693D01*
X142149989Y-31531500D01*
X142143932Y-31531500D01*
X141954500Y-31531501D01*
X141886380Y-31511499D01*
X141839887Y-31457844D01*
X141828500Y-31405501D01*
X141828499Y-31092484D01*
X141828499Y-31090012D01*
X141825629Y-31053534D01*
X141815272Y-31017885D01*
X142154000Y-31017885D01*
X142158475Y-31033124D01*
X142159865Y-31034329D01*
X142167548Y-31036000D01*
X142701900Y-31036000D01*
X142715431Y-31032027D01*
X142716566Y-31024129D01*
X142682019Y-30905217D01*
X142675770Y-30890778D01*
X142601146Y-30764595D01*
X142591499Y-30752159D01*
X142487841Y-30648501D01*
X142475405Y-30638854D01*
X142349222Y-30564230D01*
X142334783Y-30557981D01*
X142192564Y-30516662D01*
X142179977Y-30514363D01*
X142172057Y-30513740D01*
X142156970Y-30516910D01*
X142154000Y-30528374D01*
X142154000Y-31017885D01*
X141815272Y-31017885D01*
X141791241Y-30935170D01*
X141782481Y-30905017D01*
X141782480Y-30905015D01*
X141780269Y-30897404D01*
X141776231Y-30890576D01*
X141776047Y-30890264D01*
X141775962Y-30889953D01*
X141773085Y-30883305D01*
X141774031Y-30882896D01*
X141758500Y-30826125D01*
X141758500Y-30711651D01*
X141759726Y-30694115D01*
X141762452Y-30674721D01*
X141762452Y-30674718D01*
X141763001Y-30670813D01*
X141763118Y-30662464D01*
X141763244Y-30653461D01*
X141763244Y-30653455D01*
X141763299Y-30649500D01*
X141758617Y-30607758D01*
X141758500Y-30606383D01*
X141758500Y-30605207D01*
X141754040Y-30566952D01*
X141744331Y-30480392D01*
X141743756Y-30478740D01*
X141743182Y-30473819D01*
X141715393Y-30397265D01*
X141714880Y-30395822D01*
X141712999Y-30390421D01*
X141688368Y-30319689D01*
X141686300Y-30316378D01*
X141685332Y-30314445D01*
X141682833Y-30307563D01*
X141640041Y-30242294D01*
X141638575Y-30240004D01*
X141601925Y-30181353D01*
X141598192Y-30175379D01*
X141593744Y-30170899D01*
X141591125Y-30167272D01*
X141589872Y-30165774D01*
X141585856Y-30159648D01*
X141580540Y-30154613D01*
X141580535Y-30154606D01*
X141531816Y-30108454D01*
X141529084Y-30105786D01*
X141478286Y-30054632D01*
X141472334Y-30050854D01*
X141467567Y-30047022D01*
X141464481Y-30044327D01*
X141462770Y-30043047D01*
X141457453Y-30038010D01*
X141430841Y-30022552D01*
X141396334Y-30002509D01*
X141392138Y-29999960D01*
X141334608Y-29963451D01*
X141327972Y-29961088D01*
X141321637Y-29957998D01*
X141321719Y-29957830D01*
X141313087Y-29953828D01*
X141310841Y-29952851D01*
X141304510Y-29949174D01*
X141240493Y-29929785D01*
X141234754Y-29927895D01*
X141200412Y-29915666D01*
X141174300Y-29906368D01*
X141166952Y-29905492D01*
X141145346Y-29900968D01*
X141135233Y-29897905D01*
X141072282Y-29893999D01*
X141065186Y-29893357D01*
X141005329Y-29886220D01*
X140998326Y-29886956D01*
X140998323Y-29886956D01*
X140994100Y-29887400D01*
X140973129Y-29887848D01*
X140971634Y-29887755D01*
X140958702Y-29886953D01*
X140951487Y-29888193D01*
X140951483Y-29888193D01*
X140900313Y-29896986D01*
X140892145Y-29898116D01*
X140843102Y-29903270D01*
X140843099Y-29903271D01*
X140836093Y-29904007D01*
X140829424Y-29906277D01*
X140829416Y-29906279D01*
X140821724Y-29908898D01*
X140802461Y-29913800D01*
X140784386Y-29916906D01*
X140740460Y-29935596D01*
X140733408Y-29938597D01*
X140724681Y-29941934D01*
X140675003Y-29958846D01*
X140658752Y-29968844D01*
X140642075Y-29977460D01*
X140628370Y-29983291D01*
X140628365Y-29983294D01*
X140621636Y-29986157D01*
X140615745Y-29990492D01*
X140615742Y-29990494D01*
X140599416Y-30002509D01*
X140580105Y-30016720D01*
X140571459Y-30022547D01*
X140554475Y-30032995D01*
X140536068Y-30044319D01*
X140536065Y-30044321D01*
X140530066Y-30048012D01*
X140525035Y-30052939D01*
X140525031Y-30052942D01*
X140513666Y-30064072D01*
X140500192Y-30075529D01*
X140485083Y-30086648D01*
X140485076Y-30086654D01*
X140479182Y-30090992D01*
X140474440Y-30096574D01*
X140448292Y-30127352D01*
X140440431Y-30135790D01*
X140408486Y-30167073D01*
X140404669Y-30172996D01*
X140393950Y-30189629D01*
X140384065Y-30202952D01*
X140364667Y-30225785D01*
X140345480Y-30263361D01*
X140344724Y-30264842D01*
X140338418Y-30275797D01*
X140316304Y-30310110D01*
X140313896Y-30316726D01*
X140313893Y-30316732D01*
X140305794Y-30338986D01*
X140299608Y-30353195D01*
X140287794Y-30376331D01*
X140284231Y-30383308D01*
X140282491Y-30390417D01*
X140282490Y-30390421D01*
X140274724Y-30422161D01*
X140270742Y-30435291D01*
X140258103Y-30470016D01*
X140257220Y-30477008D01*
X140253764Y-30504358D01*
X140251148Y-30518507D01*
X140242192Y-30555110D01*
X140241500Y-30566264D01*
X140241500Y-30593517D01*
X140240506Y-30609309D01*
X140236775Y-30638843D01*
X140238238Y-30653763D01*
X140240899Y-30680902D01*
X140241500Y-30693198D01*
X140241500Y-30826125D01*
X140225969Y-30882896D01*
X140226915Y-30883305D01*
X140224038Y-30889953D01*
X140223953Y-30890264D01*
X140223769Y-30890576D01*
X140219731Y-30897404D01*
X140217520Y-30905015D01*
X140217519Y-30905017D01*
X140177276Y-31043534D01*
X140174371Y-31053534D01*
X140173893Y-31059606D01*
X140142034Y-31122911D01*
X140080898Y-31159007D01*
X140009952Y-31156320D01*
X139951721Y-31115704D01*
X139926108Y-31059620D01*
X139925629Y-31053534D01*
X139922724Y-31043534D01*
X139882481Y-30905017D01*
X139882480Y-30905015D01*
X139880269Y-30897404D01*
X139876047Y-30890264D01*
X139801540Y-30764280D01*
X139797506Y-30757459D01*
X139782905Y-30742858D01*
X139748879Y-30680546D01*
X139746000Y-30653763D01*
X139746000Y-30530434D01*
X139741656Y-30515639D01*
X139729997Y-30513579D01*
X139720023Y-30514363D01*
X139707436Y-30516663D01*
X139586048Y-30551929D01*
X139515742Y-30551929D01*
X139432452Y-30527731D01*
X139378510Y-30495829D01*
X139355385Y-30472704D01*
X139326043Y-30426604D01*
X139315393Y-30397265D01*
X139314880Y-30395822D01*
X139312999Y-30390421D01*
X139288368Y-30319689D01*
X139286300Y-30316378D01*
X139285332Y-30314445D01*
X139282833Y-30307563D01*
X139240041Y-30242294D01*
X139238575Y-30240004D01*
X139201925Y-30181353D01*
X139198192Y-30175379D01*
X139193744Y-30170899D01*
X139191125Y-30167272D01*
X139189872Y-30165774D01*
X139185856Y-30159648D01*
X139180540Y-30154613D01*
X139180535Y-30154606D01*
X139131816Y-30108454D01*
X139129084Y-30105786D01*
X139078286Y-30054632D01*
X139072334Y-30050854D01*
X139067567Y-30047022D01*
X139064481Y-30044327D01*
X139062770Y-30043047D01*
X139057453Y-30038010D01*
X139030841Y-30022552D01*
X138996334Y-30002509D01*
X138992138Y-29999960D01*
X138934608Y-29963451D01*
X138927972Y-29961088D01*
X138921637Y-29957998D01*
X138921719Y-29957830D01*
X138913087Y-29953828D01*
X138910841Y-29952851D01*
X138904510Y-29949174D01*
X138840493Y-29929785D01*
X138834754Y-29927895D01*
X138800412Y-29915666D01*
X138774300Y-29906368D01*
X138766952Y-29905492D01*
X138745346Y-29900968D01*
X138735233Y-29897905D01*
X138672282Y-29893999D01*
X138665186Y-29893357D01*
X138605329Y-29886220D01*
X138598326Y-29886956D01*
X138598323Y-29886956D01*
X138594100Y-29887400D01*
X138573129Y-29887848D01*
X138571634Y-29887755D01*
X138558702Y-29886953D01*
X138551487Y-29888193D01*
X138551483Y-29888193D01*
X138500313Y-29896986D01*
X138492145Y-29898116D01*
X138443102Y-29903270D01*
X138443099Y-29903271D01*
X138436093Y-29904007D01*
X138429424Y-29906277D01*
X138429416Y-29906279D01*
X138421724Y-29908898D01*
X138402461Y-29913800D01*
X138384386Y-29916906D01*
X138340460Y-29935596D01*
X138333408Y-29938597D01*
X138324681Y-29941934D01*
X138275003Y-29958846D01*
X138258752Y-29968844D01*
X138242075Y-29977460D01*
X138228370Y-29983291D01*
X138228365Y-29983294D01*
X138221636Y-29986157D01*
X138215745Y-29990492D01*
X138215742Y-29990494D01*
X138199416Y-30002509D01*
X138180105Y-30016720D01*
X138171459Y-30022547D01*
X138154475Y-30032995D01*
X138136068Y-30044319D01*
X138136065Y-30044321D01*
X138130066Y-30048012D01*
X138125035Y-30052939D01*
X138125031Y-30052942D01*
X138113666Y-30064072D01*
X138100192Y-30075529D01*
X138085083Y-30086648D01*
X138085076Y-30086654D01*
X138079182Y-30090992D01*
X138074440Y-30096574D01*
X138048292Y-30127352D01*
X138040431Y-30135790D01*
X138008486Y-30167073D01*
X138004669Y-30172996D01*
X137993950Y-30189629D01*
X137984065Y-30202952D01*
X137964667Y-30225785D01*
X137945480Y-30263361D01*
X137944724Y-30264842D01*
X137938418Y-30275797D01*
X137916304Y-30310110D01*
X137913896Y-30316726D01*
X137913893Y-30316732D01*
X137905794Y-30338986D01*
X137899608Y-30353195D01*
X137887794Y-30376331D01*
X137884231Y-30383308D01*
X137882319Y-30391120D01*
X137879719Y-30401747D01*
X137846425Y-30460894D01*
X137821490Y-30485829D01*
X137767548Y-30517731D01*
X137684258Y-30541929D01*
X137613952Y-30541929D01*
X137492564Y-30506663D01*
X137479977Y-30504363D01*
X137472057Y-30503740D01*
X137456970Y-30506910D01*
X137454000Y-30518374D01*
X137454000Y-30643763D01*
X137433998Y-30711884D01*
X137417095Y-30732858D01*
X137402494Y-30747459D01*
X137398460Y-30754280D01*
X137375829Y-30792548D01*
X137319731Y-30887404D01*
X137317520Y-30895015D01*
X137317519Y-30895017D01*
X137291159Y-30985750D01*
X137274371Y-31043534D01*
X137273867Y-31049941D01*
X137273866Y-31049945D01*
X137271693Y-31077556D01*
X137271500Y-31080011D01*
X137271501Y-31272880D01*
X137271501Y-31395500D01*
X137251499Y-31463620D01*
X137197844Y-31510113D01*
X137145503Y-31521500D01*
X137107538Y-31521501D01*
X137072001Y-31521501D01*
X137003881Y-31501500D01*
X136957387Y-31447845D01*
X136946000Y-31395501D01*
X136946000Y-30797115D01*
X136941525Y-30781876D01*
X136940135Y-30780671D01*
X136932452Y-30779000D01*
X135035115Y-30779000D01*
X135019876Y-30783475D01*
X135018671Y-30784865D01*
X135017000Y-30792548D01*
X135017000Y-30795438D01*
X135017337Y-30801953D01*
X135026894Y-30894057D01*
X135029788Y-30907456D01*
X135079381Y-31056107D01*
X135085555Y-31069286D01*
X135167788Y-31202173D01*
X135181371Y-31219311D01*
X135179441Y-31220841D01*
X135207903Y-31272880D01*
X135202887Y-31343699D01*
X135179201Y-31380617D01*
X135180157Y-31381372D01*
X135175619Y-31387118D01*
X135170448Y-31392298D01*
X135166608Y-31398528D01*
X135166607Y-31398529D01*
X135090807Y-31521500D01*
X135080698Y-31537899D01*
X135026851Y-31700243D01*
X135016500Y-31801268D01*
X135016500Y-31908289D01*
X134996498Y-31976410D01*
X134942842Y-32022903D01*
X134929436Y-32028122D01*
X134924167Y-32029834D01*
X134917712Y-32031206D01*
X134911685Y-32033889D01*
X134911683Y-32033890D01*
X134749278Y-32106197D01*
X134749276Y-32106198D01*
X134743248Y-32108882D01*
X134588747Y-32221134D01*
X134460960Y-32363056D01*
X134428737Y-32418868D01*
X134374711Y-32512444D01*
X134365473Y-32528444D01*
X134306458Y-32710072D01*
X134305768Y-32716633D01*
X134305768Y-32716635D01*
X134293252Y-32835720D01*
X134286496Y-32900000D01*
X134287186Y-32906565D01*
X134304388Y-33070229D01*
X134306458Y-33089928D01*
X134365473Y-33271556D01*
X134460960Y-33436944D01*
X134465378Y-33441851D01*
X134465379Y-33441852D01*
X134528230Y-33511655D01*
X134588747Y-33578866D01*
X134743248Y-33691118D01*
X134749276Y-33693802D01*
X134749278Y-33693803D01*
X134803372Y-33717887D01*
X134841218Y-33743899D01*
X135249595Y-34152276D01*
X135283621Y-34214588D01*
X135286500Y-34241371D01*
X135286500Y-34716502D01*
X135286693Y-34718950D01*
X135286693Y-34718958D01*
X135287738Y-34732227D01*
X135289438Y-34753831D01*
X135335855Y-34913601D01*
X135339892Y-34920427D01*
X135416509Y-35049980D01*
X135416511Y-35049983D01*
X135420547Y-35056807D01*
X135538193Y-35174453D01*
X135545017Y-35178489D01*
X135545020Y-35178491D01*
X135589023Y-35204514D01*
X135681399Y-35259145D01*
X135689010Y-35261356D01*
X135689012Y-35261357D01*
X135705001Y-35266002D01*
X135841169Y-35305562D01*
X135847574Y-35306066D01*
X135847579Y-35306067D01*
X135876042Y-35308307D01*
X135876050Y-35308307D01*
X135878498Y-35308500D01*
X136311502Y-35308500D01*
X136313950Y-35308307D01*
X136313958Y-35308307D01*
X136342421Y-35306067D01*
X136342426Y-35306066D01*
X136348831Y-35305562D01*
X136484999Y-35266002D01*
X136500988Y-35261357D01*
X136500990Y-35261356D01*
X136508601Y-35259145D01*
X136651807Y-35174453D01*
X136654489Y-35171771D01*
X136718861Y-35146498D01*
X136788484Y-35160400D01*
X136804312Y-35170572D01*
X136808193Y-35174453D01*
X136951399Y-35259145D01*
X136959010Y-35261356D01*
X136959012Y-35261357D01*
X136975001Y-35266002D01*
X137111169Y-35305562D01*
X137117574Y-35306066D01*
X137117579Y-35306067D01*
X137146042Y-35308307D01*
X137146050Y-35308307D01*
X137148498Y-35308500D01*
X137581502Y-35308500D01*
X137583950Y-35308307D01*
X137583958Y-35308307D01*
X137612421Y-35306067D01*
X137612426Y-35306066D01*
X137618831Y-35305562D01*
X137754999Y-35266002D01*
X137770988Y-35261357D01*
X137770990Y-35261356D01*
X137778601Y-35259145D01*
X137921807Y-35174453D01*
X137924489Y-35171771D01*
X137988861Y-35146498D01*
X138058484Y-35160400D01*
X138074312Y-35170572D01*
X138078193Y-35174453D01*
X138221399Y-35259145D01*
X138229010Y-35261356D01*
X138229012Y-35261357D01*
X138245001Y-35266002D01*
X138381169Y-35305562D01*
X138387574Y-35306066D01*
X138387579Y-35306067D01*
X138416042Y-35308307D01*
X138416050Y-35308307D01*
X138418498Y-35308500D01*
X138851502Y-35308500D01*
X138853950Y-35308307D01*
X138853958Y-35308307D01*
X138882421Y-35306067D01*
X138882426Y-35306066D01*
X138888831Y-35305562D01*
X139024999Y-35266002D01*
X139040988Y-35261357D01*
X139040990Y-35261356D01*
X139048601Y-35259145D01*
X139191807Y-35174453D01*
X139194489Y-35171771D01*
X139258861Y-35146498D01*
X139328484Y-35160400D01*
X139344312Y-35170572D01*
X139348193Y-35174453D01*
X139491399Y-35259145D01*
X139499010Y-35261356D01*
X139499012Y-35261357D01*
X139515001Y-35266002D01*
X139651169Y-35305562D01*
X139657574Y-35306066D01*
X139657579Y-35306067D01*
X139686042Y-35308307D01*
X139686050Y-35308307D01*
X139688498Y-35308500D01*
X139971276Y-35308500D01*
X140039397Y-35328502D01*
X140085890Y-35382158D01*
X140095994Y-35452432D01*
X140073211Y-35508562D01*
X140070639Y-35512102D01*
X140065216Y-35517877D01*
X140061399Y-35524819D01*
X140061398Y-35524821D01*
X140055454Y-35535632D01*
X140044603Y-35552151D01*
X140032188Y-35568157D01*
X140029043Y-35575426D01*
X140029040Y-35575430D01*
X140014628Y-35608735D01*
X140009411Y-35619385D01*
X139988107Y-35658138D01*
X139986136Y-35665813D01*
X139986136Y-35665814D01*
X139983069Y-35677760D01*
X139976665Y-35696464D01*
X139968621Y-35715053D01*
X139967382Y-35722876D01*
X139967379Y-35722886D01*
X139961703Y-35758722D01*
X139959297Y-35770342D01*
X139952008Y-35798732D01*
X139948302Y-35813168D01*
X139948302Y-35833422D01*
X139946751Y-35853132D01*
X139943582Y-35873141D01*
X139944328Y-35881033D01*
X139947743Y-35917159D01*
X139948302Y-35929017D01*
X139948302Y-36467207D01*
X139928300Y-36535328D01*
X139911397Y-36556302D01*
X139713104Y-36754595D01*
X139650792Y-36788621D01*
X139624009Y-36791500D01*
X137547012Y-36791500D01*
X137535828Y-36790973D01*
X137528340Y-36789299D01*
X137520417Y-36789548D01*
X137460282Y-36791438D01*
X137456324Y-36791500D01*
X137428393Y-36791500D01*
X137424478Y-36791995D01*
X137424474Y-36791995D01*
X137424416Y-36792003D01*
X137424387Y-36792006D01*
X137412545Y-36792939D01*
X137368359Y-36794327D01*
X137350993Y-36799372D01*
X137348907Y-36799978D01*
X137329555Y-36803986D01*
X137322484Y-36804880D01*
X137309452Y-36806526D01*
X137302083Y-36809443D01*
X137302081Y-36809444D01*
X137268346Y-36822800D01*
X137257118Y-36826645D01*
X137214656Y-36838982D01*
X137207834Y-36843016D01*
X137207828Y-36843019D01*
X137197217Y-36849294D01*
X137179467Y-36857990D01*
X137168005Y-36862528D01*
X137168000Y-36862531D01*
X137160632Y-36865448D01*
X137154217Y-36870109D01*
X137124874Y-36891427D01*
X137114956Y-36897943D01*
X137102919Y-36905062D01*
X137076886Y-36920458D01*
X137062562Y-36934782D01*
X137047530Y-36947621D01*
X137031142Y-36959528D01*
X137006504Y-36989310D01*
X137002961Y-36993593D01*
X136994971Y-37002373D01*
X136342749Y-37654595D01*
X136280437Y-37688621D01*
X136253654Y-37691500D01*
X135878498Y-37691500D01*
X135876050Y-37691693D01*
X135876042Y-37691693D01*
X135847579Y-37693933D01*
X135847574Y-37693934D01*
X135841169Y-37694438D01*
X135741231Y-37723472D01*
X135689012Y-37738643D01*
X135689010Y-37738644D01*
X135681399Y-37740855D01*
X135674572Y-37744892D01*
X135674573Y-37744892D01*
X135545020Y-37821509D01*
X135545017Y-37821511D01*
X135538193Y-37825547D01*
X135420547Y-37943193D01*
X135416511Y-37950017D01*
X135416509Y-37950020D01*
X135352893Y-38057589D01*
X135335855Y-38086399D01*
X135289438Y-38246169D01*
X135286500Y-38283498D01*
X135286500Y-38935406D01*
X135266498Y-39003527D01*
X135249595Y-39024501D01*
X134007747Y-40266348D01*
X133999461Y-40273888D01*
X133992982Y-40278000D01*
X133987557Y-40283777D01*
X133946357Y-40327651D01*
X133943602Y-40330493D01*
X133923865Y-40350230D01*
X133921385Y-40353427D01*
X133913682Y-40362447D01*
X133883414Y-40394679D01*
X133879595Y-40401625D01*
X133879593Y-40401628D01*
X133873652Y-40412434D01*
X133862801Y-40428953D01*
X133850386Y-40444959D01*
X133847241Y-40452228D01*
X133847238Y-40452232D01*
X133832826Y-40485537D01*
X133827609Y-40496187D01*
X133806305Y-40534940D01*
X133804334Y-40542615D01*
X133804334Y-40542616D01*
X133801267Y-40554562D01*
X133794863Y-40573266D01*
X133786819Y-40591855D01*
X133785580Y-40599678D01*
X133785577Y-40599688D01*
X133779901Y-40635524D01*
X133777495Y-40647144D01*
X133769164Y-40679595D01*
X133766500Y-40689970D01*
X133766500Y-40710224D01*
X133764949Y-40729934D01*
X133761780Y-40749943D01*
X133762526Y-40757835D01*
X133765941Y-40793961D01*
X133766500Y-40805819D01*
X133766500Y-42285406D01*
X133746498Y-42353527D01*
X133729595Y-42374501D01*
X132724500Y-43379595D01*
X132662188Y-43413621D01*
X132635405Y-43416500D01*
X123000991Y-43416500D01*
X122932870Y-43396498D01*
X122911896Y-43379595D01*
X122245405Y-42713104D01*
X122211379Y-42650792D01*
X122208500Y-42624009D01*
X122208500Y-41492066D01*
X122209027Y-41480883D01*
X122210702Y-41473390D01*
X122208562Y-41405313D01*
X122208500Y-41401354D01*
X122208500Y-41373443D01*
X122207995Y-41369443D01*
X122207062Y-41357600D01*
X122206709Y-41346350D01*
X122205673Y-41313409D01*
X122200022Y-41293957D01*
X122196014Y-41274605D01*
X122194467Y-41262362D01*
X122193474Y-41254502D01*
X122189767Y-41245139D01*
X122177200Y-41213396D01*
X122173355Y-41202169D01*
X122172721Y-41199986D01*
X122161018Y-41159706D01*
X122150707Y-41142271D01*
X122142012Y-41124523D01*
X122134552Y-41105682D01*
X122108564Y-41069912D01*
X122102048Y-41059992D01*
X122083580Y-41028764D01*
X122083578Y-41028761D01*
X122079542Y-41021937D01*
X122065221Y-41007616D01*
X122052380Y-40992582D01*
X122045131Y-40982605D01*
X122040472Y-40976192D01*
X122034367Y-40971141D01*
X122034362Y-40971136D01*
X122006396Y-40948000D01*
X121997618Y-40940012D01*
X121234049Y-40176443D01*
X121200023Y-40114131D01*
X121205088Y-40043316D01*
X121234049Y-39998253D01*
X121942258Y-39290044D01*
X121950538Y-39282509D01*
X121957018Y-39278396D01*
X122003644Y-39228744D01*
X122006398Y-39225903D01*
X122026135Y-39206166D01*
X122028615Y-39202969D01*
X122036320Y-39193947D01*
X122061159Y-39167496D01*
X122066586Y-39161717D01*
X122070405Y-39154771D01*
X122070407Y-39154768D01*
X122076348Y-39143962D01*
X122087199Y-39127443D01*
X122094758Y-39117697D01*
X122099614Y-39111437D01*
X122102759Y-39104168D01*
X122102762Y-39104164D01*
X122117174Y-39070859D01*
X122122391Y-39060209D01*
X122143695Y-39021456D01*
X122148733Y-39001833D01*
X122155137Y-38983130D01*
X122160033Y-38971816D01*
X122160033Y-38971815D01*
X122163181Y-38964541D01*
X122164420Y-38956718D01*
X122164423Y-38956708D01*
X122170099Y-38920872D01*
X122172505Y-38909252D01*
X122181528Y-38874107D01*
X122181528Y-38874106D01*
X122183500Y-38866426D01*
X122183500Y-38846172D01*
X122185051Y-38826461D01*
X122186980Y-38814282D01*
X122188220Y-38806453D01*
X122184059Y-38762434D01*
X122183500Y-38750577D01*
X122183500Y-33492371D01*
X122184027Y-33481188D01*
X122185702Y-33473695D01*
X122185211Y-33458058D01*
X122183562Y-33405618D01*
X122183500Y-33401659D01*
X122183500Y-33373748D01*
X122182995Y-33369748D01*
X122182062Y-33357905D01*
X122181417Y-33337366D01*
X122180673Y-33313714D01*
X122175022Y-33294262D01*
X122171014Y-33274910D01*
X122169467Y-33262667D01*
X122168474Y-33254807D01*
X122160525Y-33234729D01*
X122152200Y-33213701D01*
X122148355Y-33202474D01*
X122143135Y-33184508D01*
X122136018Y-33160011D01*
X122131984Y-33153189D01*
X122131981Y-33153183D01*
X122125706Y-33142572D01*
X122117010Y-33124822D01*
X122112472Y-33113360D01*
X122112469Y-33113355D01*
X122109552Y-33105987D01*
X122093116Y-33083365D01*
X122083573Y-33070229D01*
X122077057Y-33060311D01*
X122058575Y-33029061D01*
X122054542Y-33022241D01*
X122040218Y-33007917D01*
X122027376Y-32992882D01*
X122015472Y-32976497D01*
X121981406Y-32948315D01*
X121972627Y-32940326D01*
X120120405Y-31088104D01*
X120086379Y-31025792D01*
X120083500Y-30999010D01*
X120083499Y-30771250D01*
X120083499Y-30768366D01*
X120082990Y-30762817D01*
X120077364Y-30701592D01*
X120076753Y-30694938D01*
X120069193Y-30670813D01*
X120027744Y-30538550D01*
X120027743Y-30538548D01*
X120025472Y-30531301D01*
X119936639Y-30384619D01*
X119840761Y-30288741D01*
X119821313Y-30253126D01*
X135017071Y-30253126D01*
X135021475Y-30268124D01*
X135022865Y-30269329D01*
X135030548Y-30271000D01*
X135727885Y-30271000D01*
X135743124Y-30266525D01*
X135744329Y-30265135D01*
X135746000Y-30257452D01*
X135746000Y-30252885D01*
X136254000Y-30252885D01*
X136258475Y-30268124D01*
X136259865Y-30269329D01*
X136267548Y-30271000D01*
X136964885Y-30271000D01*
X136980124Y-30266525D01*
X136981329Y-30265135D01*
X136983000Y-30257452D01*
X136983000Y-30254562D01*
X136982663Y-30248047D01*
X136973106Y-30155943D01*
X136970212Y-30142544D01*
X136920619Y-29993893D01*
X136914445Y-29980714D01*
X136832212Y-29847827D01*
X136823176Y-29836426D01*
X136712571Y-29726014D01*
X136701160Y-29717002D01*
X136568120Y-29634996D01*
X136554939Y-29628849D01*
X136406186Y-29579509D01*
X136392810Y-29576642D01*
X136301903Y-29567328D01*
X136295486Y-29567000D01*
X136272115Y-29567000D01*
X136256876Y-29571475D01*
X136255671Y-29572865D01*
X136254000Y-29580548D01*
X136254000Y-30252885D01*
X135746000Y-30252885D01*
X135746000Y-29585115D01*
X135741525Y-29569876D01*
X135740135Y-29568671D01*
X135732452Y-29567000D01*
X135704562Y-29567000D01*
X135698047Y-29567337D01*
X135605943Y-29576894D01*
X135592544Y-29579788D01*
X135443893Y-29629381D01*
X135430714Y-29635555D01*
X135297827Y-29717788D01*
X135286426Y-29726824D01*
X135176014Y-29837429D01*
X135167002Y-29848840D01*
X135084996Y-29981880D01*
X135078849Y-29995061D01*
X135029509Y-30143814D01*
X135026642Y-30157190D01*
X135017328Y-30248097D01*
X135017071Y-30253126D01*
X119821313Y-30253126D01*
X119806735Y-30226429D01*
X119811800Y-30155614D01*
X119840761Y-30110551D01*
X119930869Y-30020443D01*
X119940176Y-30008574D01*
X120021079Y-29874988D01*
X120027285Y-29861243D01*
X120074256Y-29711356D01*
X120076869Y-29698306D01*
X120081913Y-29643414D01*
X120078525Y-29631876D01*
X120077135Y-29630671D01*
X120069452Y-29629000D01*
X118972000Y-29629000D01*
X118903879Y-29608998D01*
X118857386Y-29555342D01*
X118846000Y-29503000D01*
X118846000Y-29247000D01*
X118866002Y-29178879D01*
X118919658Y-29132386D01*
X118972000Y-29121000D01*
X120064884Y-29121000D01*
X120080123Y-29116525D01*
X120081328Y-29115135D01*
X120082291Y-29110706D01*
X120076868Y-29051685D01*
X120074257Y-29038649D01*
X120027285Y-28888757D01*
X120021079Y-28875012D01*
X119940176Y-28741426D01*
X119930869Y-28729557D01*
X119924907Y-28723595D01*
X119890881Y-28661283D01*
X119895946Y-28590468D01*
X119938493Y-28533632D01*
X120005013Y-28508821D01*
X120014002Y-28508500D01*
X142237183Y-28508500D01*
X142305304Y-28528502D01*
G37*
G04 #@! TD.AperFunction*
G04 #@! TA.AperFunction,Conductor*
G36*
X115511046Y-34207708D02*
G01*
X115564186Y-34254790D01*
X115577677Y-34284059D01*
X115594643Y-34338198D01*
X115600849Y-34351943D01*
X115677050Y-34477765D01*
X115686357Y-34489634D01*
X115790366Y-34593643D01*
X115802235Y-34602950D01*
X115928057Y-34679151D01*
X115941802Y-34685357D01*
X116083030Y-34729614D01*
X116096077Y-34732227D01*
X116156011Y-34737734D01*
X116161800Y-34738000D01*
X116428823Y-34738000D01*
X116496944Y-34758002D01*
X116543437Y-34811658D01*
X116553541Y-34881932D01*
X116537882Y-34925150D01*
X116538089Y-34925246D01*
X116537005Y-34927571D01*
X116536082Y-34930118D01*
X116534994Y-34931882D01*
X116528849Y-34945061D01*
X116479509Y-35093814D01*
X116476642Y-35107190D01*
X116467328Y-35198097D01*
X116467000Y-35204514D01*
X116467000Y-35227885D01*
X116471475Y-35243124D01*
X116472865Y-35244329D01*
X116480548Y-35246000D01*
X117553000Y-35246000D01*
X117621121Y-35266002D01*
X117667614Y-35319658D01*
X117679000Y-35372000D01*
X117679000Y-36464885D01*
X117683475Y-36480124D01*
X117684865Y-36481329D01*
X117692548Y-36483000D01*
X117695438Y-36483000D01*
X117701953Y-36482663D01*
X117794057Y-36473106D01*
X117807456Y-36470212D01*
X117956107Y-36420619D01*
X117969286Y-36414445D01*
X118102173Y-36332212D01*
X118119311Y-36318629D01*
X118120841Y-36320559D01*
X118172880Y-36292097D01*
X118243699Y-36297113D01*
X118280617Y-36320799D01*
X118281372Y-36319843D01*
X118287118Y-36324381D01*
X118292298Y-36329552D01*
X118298528Y-36333392D01*
X118298529Y-36333393D01*
X118430020Y-36414445D01*
X118437899Y-36419302D01*
X118600243Y-36473149D01*
X118607080Y-36473849D01*
X118607082Y-36473850D01*
X118648401Y-36478083D01*
X118701268Y-36483500D01*
X119248732Y-36483500D01*
X119251978Y-36483163D01*
X119251982Y-36483163D01*
X119286083Y-36479625D01*
X119351019Y-36472887D01*
X119449575Y-36440006D01*
X119506324Y-36421073D01*
X119506326Y-36421072D01*
X119513268Y-36418756D01*
X119658713Y-36328752D01*
X119691925Y-36295482D01*
X119754207Y-36261403D01*
X119781098Y-36258500D01*
X119832913Y-36258500D01*
X119906972Y-36282563D01*
X119913402Y-36287235D01*
X119913409Y-36287239D01*
X119918748Y-36291118D01*
X119924776Y-36293802D01*
X119924778Y-36293803D01*
X120081074Y-36363390D01*
X120093212Y-36368794D01*
X120175505Y-36386286D01*
X120273556Y-36407128D01*
X120273561Y-36407128D01*
X120280013Y-36408500D01*
X120340500Y-36408500D01*
X120408621Y-36428502D01*
X120455114Y-36482158D01*
X120466500Y-36534500D01*
X120466500Y-38285405D01*
X120446498Y-38353526D01*
X120429595Y-38374501D01*
X119924499Y-38879596D01*
X119862187Y-38913621D01*
X119835404Y-38916500D01*
X119481826Y-38916500D01*
X119437596Y-38908482D01*
X119430239Y-38905724D01*
X119410316Y-38898255D01*
X119348134Y-38891500D01*
X117951866Y-38891500D01*
X117889684Y-38898255D01*
X117753295Y-38949385D01*
X117636739Y-39036739D01*
X117549385Y-39153295D01*
X117498255Y-39289684D01*
X117491500Y-39351866D01*
X117491500Y-39748134D01*
X117491869Y-39751529D01*
X117491869Y-39751533D01*
X117495656Y-39786393D01*
X117495656Y-39813606D01*
X117491500Y-39851866D01*
X117491500Y-40248134D01*
X117491869Y-40251529D01*
X117491869Y-40251533D01*
X117495656Y-40286393D01*
X117495656Y-40313606D01*
X117491500Y-40351866D01*
X117491500Y-40590500D01*
X117471498Y-40658621D01*
X117417842Y-40705114D01*
X117365500Y-40716500D01*
X116764594Y-40716500D01*
X116696473Y-40696498D01*
X116675499Y-40679595D01*
X115175775Y-39179871D01*
X115141749Y-39117559D01*
X115141750Y-39063993D01*
X115146000Y-39044456D01*
X115146000Y-39039884D01*
X115654000Y-39039884D01*
X115658475Y-39055123D01*
X115659865Y-39056328D01*
X115667548Y-39057999D01*
X116544669Y-39057999D01*
X116551490Y-39057629D01*
X116602352Y-39052105D01*
X116617604Y-39048479D01*
X116738054Y-39003324D01*
X116753649Y-38994786D01*
X116855724Y-38918285D01*
X116868285Y-38905724D01*
X116944786Y-38803649D01*
X116953324Y-38788054D01*
X116998478Y-38667606D01*
X117002105Y-38652351D01*
X117007631Y-38601486D01*
X117008000Y-38594672D01*
X117008000Y-37922115D01*
X117003525Y-37906876D01*
X117002135Y-37905671D01*
X116994452Y-37904000D01*
X115672115Y-37904000D01*
X115656876Y-37908475D01*
X115655671Y-37909865D01*
X115654000Y-37917548D01*
X115654000Y-39039884D01*
X115146000Y-39039884D01*
X115146000Y-37377885D01*
X115654000Y-37377885D01*
X115658475Y-37393124D01*
X115659865Y-37394329D01*
X115667548Y-37396000D01*
X116989884Y-37396000D01*
X117005123Y-37391525D01*
X117006328Y-37390135D01*
X117007999Y-37382452D01*
X117007999Y-36705331D01*
X117007629Y-36698510D01*
X117002106Y-36647651D01*
X116999285Y-36635787D01*
X117002990Y-36564887D01*
X117044437Y-36507245D01*
X117110469Y-36481162D01*
X117134709Y-36481301D01*
X117148092Y-36482672D01*
X117153126Y-36482929D01*
X117168124Y-36478525D01*
X117169329Y-36477135D01*
X117171000Y-36469452D01*
X117171000Y-35772115D01*
X117166525Y-35756876D01*
X117165135Y-35755671D01*
X117157452Y-35754000D01*
X116485115Y-35754000D01*
X116469876Y-35758475D01*
X116468671Y-35759865D01*
X116467000Y-35767548D01*
X116467000Y-35795438D01*
X116467337Y-35801953D01*
X116476894Y-35894057D01*
X116479788Y-35907456D01*
X116529383Y-36056112D01*
X116532399Y-36062551D01*
X116543182Y-36132723D01*
X116514316Y-36197587D01*
X116454964Y-36236547D01*
X116418297Y-36242000D01*
X115672115Y-36242000D01*
X115656876Y-36246475D01*
X115655671Y-36247865D01*
X115654000Y-36255548D01*
X115654000Y-37377885D01*
X115146000Y-37377885D01*
X115146000Y-36260116D01*
X115141525Y-36244877D01*
X115140135Y-36243672D01*
X115132452Y-36242001D01*
X114255331Y-36242001D01*
X114248510Y-36242371D01*
X114197648Y-36247895D01*
X114182396Y-36251521D01*
X114061946Y-36296676D01*
X114046352Y-36305214D01*
X113968728Y-36363390D01*
X113907446Y-36386286D01*
X113895809Y-36440006D01*
X113885995Y-36455282D01*
X113855212Y-36496356D01*
X113846676Y-36511946D01*
X113801522Y-36632394D01*
X113797895Y-36647649D01*
X113792369Y-36698514D01*
X113792000Y-36705328D01*
X113792001Y-37491906D01*
X113771999Y-37560027D01*
X113718343Y-37606520D01*
X113648069Y-37616624D01*
X113583489Y-37587131D01*
X113576916Y-37581011D01*
X112679903Y-36683998D01*
X112645880Y-36621689D01*
X112650944Y-36550874D01*
X112693491Y-36494038D01*
X112713254Y-36484145D01*
X112719329Y-36477135D01*
X112721000Y-36469452D01*
X112721000Y-36464885D01*
X113229000Y-36464885D01*
X113233475Y-36480124D01*
X113234865Y-36481329D01*
X113242548Y-36483000D01*
X113245438Y-36483000D01*
X113251953Y-36482663D01*
X113344057Y-36473106D01*
X113357456Y-36470212D01*
X113506107Y-36420619D01*
X113519286Y-36414445D01*
X113652173Y-36332212D01*
X113663579Y-36323172D01*
X113695997Y-36290698D01*
X113758279Y-36256619D01*
X113768282Y-36257326D01*
X113767479Y-36253646D01*
X113785903Y-36196449D01*
X113865002Y-36068125D01*
X113871151Y-36054939D01*
X113920491Y-35906186D01*
X113923358Y-35892810D01*
X113932672Y-35801903D01*
X113933000Y-35795487D01*
X113933000Y-35772115D01*
X113928525Y-35756876D01*
X113927135Y-35755671D01*
X113919452Y-35754000D01*
X113247115Y-35754000D01*
X113231876Y-35758475D01*
X113230671Y-35759865D01*
X113229000Y-35767548D01*
X113229000Y-36464885D01*
X112721000Y-36464885D01*
X112721000Y-35372000D01*
X112741002Y-35303879D01*
X112794658Y-35257386D01*
X112847000Y-35246000D01*
X113914885Y-35246000D01*
X113930124Y-35241525D01*
X113931329Y-35240135D01*
X113933000Y-35232452D01*
X113933000Y-35204562D01*
X113932663Y-35198047D01*
X113923106Y-35105943D01*
X113920212Y-35092544D01*
X113915819Y-35079376D01*
X113913235Y-35008426D01*
X113949419Y-34947342D01*
X114012883Y-34915518D01*
X114035343Y-34913500D01*
X114333157Y-34913500D01*
X114346764Y-34914237D01*
X114378262Y-34917659D01*
X114378267Y-34917659D01*
X114384388Y-34918324D01*
X114416462Y-34915518D01*
X114434388Y-34913950D01*
X114439214Y-34913621D01*
X114441686Y-34913500D01*
X114444769Y-34913500D01*
X114456738Y-34912326D01*
X114487506Y-34909310D01*
X114488819Y-34909188D01*
X114533084Y-34905315D01*
X114581413Y-34901087D01*
X114586532Y-34899600D01*
X114591833Y-34899080D01*
X114680834Y-34872209D01*
X114681967Y-34871874D01*
X114765414Y-34847630D01*
X114765418Y-34847628D01*
X114771336Y-34845909D01*
X114776068Y-34843456D01*
X114781169Y-34841916D01*
X114786612Y-34839022D01*
X114863260Y-34798269D01*
X114864426Y-34797657D01*
X114941453Y-34757729D01*
X114946926Y-34754892D01*
X114951089Y-34751569D01*
X114955796Y-34749066D01*
X115027918Y-34690245D01*
X115028774Y-34689554D01*
X115067973Y-34658262D01*
X115070477Y-34655758D01*
X115071195Y-34655116D01*
X115075528Y-34651415D01*
X115109062Y-34624065D01*
X115138292Y-34588732D01*
X115144069Y-34582384D01*
X115144065Y-34582381D01*
X115146129Y-34580105D01*
X115148309Y-34577925D01*
X115242103Y-34463739D01*
X115335562Y-34289437D01*
X115337364Y-34283542D01*
X115339732Y-34277854D01*
X115341191Y-34278461D01*
X115375985Y-34225610D01*
X115440887Y-34196830D01*
X115511046Y-34207708D01*
G37*
G04 #@! TD.AperFunction*
G04 #@! TA.AperFunction,Conductor*
G36*
X118516883Y-33671002D02*
G01*
X118563376Y-33724658D01*
X118569658Y-33741502D01*
X118577475Y-33768124D01*
X118578865Y-33769329D01*
X118586548Y-33771000D01*
X120064884Y-33771000D01*
X120080123Y-33766525D01*
X120081328Y-33765135D01*
X120083717Y-33754151D01*
X120117741Y-33691838D01*
X120180053Y-33657812D01*
X120250869Y-33662876D01*
X120295933Y-33691837D01*
X120429595Y-33825499D01*
X120463621Y-33887811D01*
X120466500Y-33914594D01*
X120466500Y-34465500D01*
X120446498Y-34533621D01*
X120392842Y-34580114D01*
X120340500Y-34591500D01*
X120280013Y-34591500D01*
X120273561Y-34592872D01*
X120273556Y-34592872D01*
X120232534Y-34601592D01*
X120193213Y-34609950D01*
X120122423Y-34604548D01*
X120065791Y-34561731D01*
X120041297Y-34495094D01*
X120046782Y-34449025D01*
X120074257Y-34361350D01*
X120076869Y-34348306D01*
X120081913Y-34293414D01*
X120078525Y-34281876D01*
X120077135Y-34280671D01*
X120069452Y-34279000D01*
X118201238Y-34279000D01*
X118133117Y-34258998D01*
X118086624Y-34205342D01*
X118080342Y-34188498D01*
X118072525Y-34161876D01*
X118071135Y-34160671D01*
X118063452Y-34159000D01*
X116909500Y-34159000D01*
X116841379Y-34138998D01*
X116794886Y-34085342D01*
X116783500Y-34033000D01*
X116783500Y-33777000D01*
X116803502Y-33708879D01*
X116857158Y-33662386D01*
X116909500Y-33651000D01*
X118448762Y-33651000D01*
X118516883Y-33671002D01*
G37*
G04 #@! TD.AperFunction*
G04 #@! TA.AperFunction,Conductor*
G36*
X118254119Y-28528502D02*
G01*
X118300612Y-28582158D01*
X118310716Y-28652432D01*
X118281222Y-28717012D01*
X118275093Y-28723595D01*
X118269131Y-28729557D01*
X118259824Y-28741426D01*
X118178921Y-28875012D01*
X118172715Y-28888757D01*
X118125744Y-29038644D01*
X118123131Y-29051694D01*
X118117266Y-29115521D01*
X118117000Y-29121309D01*
X118117000Y-29142352D01*
X118096998Y-29210473D01*
X118043342Y-29256966D01*
X117979471Y-29267823D01*
X117918989Y-29262266D01*
X117913200Y-29262000D01*
X117309615Y-29262000D01*
X117294376Y-29266475D01*
X117293171Y-29267865D01*
X117291500Y-29275548D01*
X117291500Y-30223000D01*
X117271498Y-30291121D01*
X117217842Y-30337614D01*
X117165500Y-30349000D01*
X115563598Y-30349000D01*
X115549053Y-30353271D01*
X115546990Y-30365403D01*
X115547774Y-30373931D01*
X115550385Y-30386967D01*
X115594643Y-30528198D01*
X115600849Y-30541942D01*
X115674919Y-30664246D01*
X115693098Y-30732876D01*
X115674919Y-30794789D01*
X115600393Y-30917846D01*
X115600391Y-30917850D01*
X115596457Y-30924346D01*
X115594186Y-30931593D01*
X115594185Y-30931595D01*
X115576425Y-30988269D01*
X115547890Y-31079322D01*
X115541500Y-31148867D01*
X115541501Y-31581132D01*
X115541764Y-31583991D01*
X115541764Y-31583999D01*
X115544929Y-31618446D01*
X115547890Y-31650678D01*
X115596457Y-31805654D01*
X115600391Y-31812150D01*
X115600393Y-31812154D01*
X115674627Y-31934729D01*
X115692806Y-32003358D01*
X115674627Y-32065271D01*
X115600393Y-32187846D01*
X115600391Y-32187850D01*
X115596457Y-32194346D01*
X115547890Y-32349322D01*
X115541500Y-32418867D01*
X115541501Y-32851132D01*
X115547890Y-32920678D01*
X115549889Y-32927056D01*
X115549889Y-32927057D01*
X115591649Y-33060311D01*
X115596457Y-33075654D01*
X115600391Y-33082150D01*
X115600393Y-33082154D01*
X115674919Y-33205211D01*
X115693098Y-33273840D01*
X115674919Y-33335754D01*
X115600849Y-33458058D01*
X115594643Y-33471802D01*
X115579572Y-33519895D01*
X115540115Y-33578917D01*
X115475011Y-33607237D01*
X115404932Y-33595864D01*
X115352125Y-33548409D01*
X115343154Y-33528389D01*
X115342349Y-33528717D01*
X115340019Y-33523007D01*
X115338259Y-33517104D01*
X115246018Y-33342154D01*
X115240836Y-33335754D01*
X115125432Y-33193243D01*
X115125431Y-33193242D01*
X115121553Y-33188453D01*
X115045181Y-33124822D01*
X114974338Y-33065798D01*
X114974337Y-33065797D01*
X114969604Y-33061854D01*
X114795959Y-32967178D01*
X114667932Y-32927057D01*
X114613114Y-32909878D01*
X114613111Y-32909877D01*
X114607232Y-32908035D01*
X114601109Y-32907370D01*
X114601105Y-32907369D01*
X114416737Y-32887341D01*
X114416733Y-32887341D01*
X114410612Y-32886676D01*
X114308409Y-32895617D01*
X114303795Y-32896021D01*
X114292814Y-32896500D01*
X113584500Y-32896500D01*
X113516379Y-32876498D01*
X113469886Y-32822842D01*
X113458500Y-32770500D01*
X113458499Y-32421751D01*
X113458499Y-32418868D01*
X113458234Y-32415976D01*
X113453897Y-32368774D01*
X113452110Y-32349322D01*
X113403543Y-32194346D01*
X113399609Y-32187850D01*
X113399607Y-32187846D01*
X113325373Y-32065271D01*
X113307194Y-31996642D01*
X113325373Y-31934729D01*
X113399607Y-31812154D01*
X113399609Y-31812150D01*
X113403543Y-31805654D01*
X113452110Y-31650678D01*
X113458500Y-31581133D01*
X113458499Y-31229499D01*
X113478501Y-31161380D01*
X113532156Y-31114887D01*
X113584499Y-31103500D01*
X113843157Y-31103500D01*
X113856764Y-31104237D01*
X113888262Y-31107659D01*
X113888267Y-31107659D01*
X113894388Y-31108324D01*
X113920638Y-31106027D01*
X113944388Y-31103950D01*
X113949214Y-31103621D01*
X113951686Y-31103500D01*
X113954769Y-31103500D01*
X113966738Y-31102326D01*
X113997506Y-31099310D01*
X113998819Y-31099188D01*
X114043084Y-31095315D01*
X114091413Y-31091087D01*
X114096532Y-31089600D01*
X114101833Y-31089080D01*
X114190834Y-31062209D01*
X114191967Y-31061874D01*
X114275414Y-31037630D01*
X114275418Y-31037628D01*
X114281336Y-31035909D01*
X114286068Y-31033456D01*
X114291169Y-31031916D01*
X114353058Y-30999010D01*
X114373260Y-30988269D01*
X114374426Y-30987657D01*
X114451453Y-30947729D01*
X114456926Y-30944892D01*
X114461089Y-30941569D01*
X114465796Y-30939066D01*
X114537918Y-30880245D01*
X114538774Y-30879554D01*
X114577973Y-30848262D01*
X114580477Y-30845758D01*
X114581195Y-30845116D01*
X114585528Y-30841415D01*
X114619062Y-30814065D01*
X114648289Y-30778735D01*
X114656279Y-30769955D01*
X114848309Y-30577925D01*
X114857323Y-30566952D01*
X114897753Y-30517731D01*
X114942103Y-30463739D01*
X114994830Y-30365403D01*
X115032650Y-30294870D01*
X115032651Y-30294869D01*
X115035563Y-30289437D01*
X115072974Y-30167073D01*
X115091585Y-30106200D01*
X115091585Y-30106198D01*
X115093388Y-30100302D01*
X115098105Y-30053863D01*
X115112752Y-29909665D01*
X115112752Y-29909661D01*
X115113374Y-29903537D01*
X115105757Y-29822960D01*
X115547140Y-29822960D01*
X115550063Y-29837836D01*
X115561957Y-29841000D01*
X116765385Y-29841000D01*
X116780624Y-29836525D01*
X116781829Y-29835135D01*
X116783500Y-29827452D01*
X116783500Y-29280115D01*
X116779025Y-29264876D01*
X116777635Y-29263671D01*
X116769952Y-29262000D01*
X116161800Y-29262000D01*
X116156011Y-29262266D01*
X116096077Y-29267773D01*
X116083030Y-29270386D01*
X115941802Y-29314643D01*
X115928057Y-29320849D01*
X115802235Y-29397050D01*
X115790366Y-29406357D01*
X115686357Y-29510366D01*
X115677050Y-29522235D01*
X115600849Y-29648057D01*
X115594643Y-29661802D01*
X115550385Y-29803033D01*
X115547774Y-29816069D01*
X115547140Y-29822960D01*
X115105757Y-29822960D01*
X115099172Y-29753295D01*
X115095342Y-29712770D01*
X115095341Y-29712766D01*
X115094762Y-29706638D01*
X115092279Y-29698306D01*
X115040020Y-29523007D01*
X115040019Y-29523005D01*
X115038260Y-29517104D01*
X114946018Y-29342153D01*
X114928767Y-29320849D01*
X114825432Y-29193242D01*
X114825431Y-29193241D01*
X114821553Y-29188452D01*
X114766222Y-29142352D01*
X114674335Y-29065794D01*
X114674330Y-29065791D01*
X114669604Y-29061853D01*
X114648063Y-29050108D01*
X114501365Y-28970125D01*
X114501366Y-28970125D01*
X114495960Y-28967178D01*
X114307232Y-28908035D01*
X114301109Y-28907370D01*
X114301105Y-28907369D01*
X114116737Y-28887340D01*
X114116733Y-28887340D01*
X114110612Y-28886675D01*
X113913587Y-28903913D01*
X113723664Y-28959091D01*
X113548074Y-29050108D01*
X113536972Y-29058971D01*
X113471258Y-29085838D01*
X113458363Y-29086500D01*
X111936817Y-29086500D01*
X111868696Y-29066498D01*
X111822203Y-29012842D01*
X111812099Y-28942568D01*
X111841593Y-28877988D01*
X111847722Y-28871405D01*
X112173722Y-28545405D01*
X112236034Y-28511379D01*
X112262817Y-28508500D01*
X118185998Y-28508500D01*
X118254119Y-28528502D01*
G37*
G04 #@! TD.AperFunction*
M02*
